date, pm25, pm10, o3, no2, so2
2020/4/2, 22, 11, 35, 8, 
2020/4/3, 32, 12, 29, 16, 
2020/4/4, 40, , , 21, 
2020/3/2, 57, 19, 28, 10, 
2020/3/3, 51, 19, 31, 9, 
2020/3/4, 44, 20, 22, 17, 
2020/3/5, 44, 15, 17, 22, 
2020/3/6, 36, 24, 32, 11, 
2020/3/7, 52, 19, 30, 11, 
2020/3/8, 37, , , 11, 
2020/3/10, 43, 21, , 19, 
2020/3/11, 54, 24, 23, 27, 
2020/3/12, 55, 18, 34, 11, 
2020/3/13, 53, 18, 31, 7, 
2020/3/14, 41, 25, 29, 9, 
2020/3/15, 47, 12, 34, 4, 
2020/3/16, 40, 15, 32, 4, 
2020/3/17, 34, 10, 29, 8, 
2020/3/18, 32, 31, 30, 7, 
2020/3/19, 61, 39, 32, 9, 
2020/3/20, 64, 13, 28, 9, 
2020/3/21, 24, 7, 30, 12, 
2020/3/22, 17, 9, 30, 7, 
2020/3/23, 27, 31, 26, 5, 
2020/3/24, 73, 8, 29, 7, 
2020/3/25, 21, 17, 33, 7, 
2020/3/26, 39, 21, 39, 4, 
2020/3/27, 46, 20, 43, 5, 
2020/3/28, 39, 11, 35, 4, 
2020/3/29, 28, 10, 43, 7, 
2020/3/30, 36, 18, 27, 8, 
2020/3/31, 48, 6, 30, 8, 
2020/4/1, 15, 8, 27, 15, 
2020/2/4, 36, 45, 10, 22, 
2020/2/5, 74, 13, 6, 31, 
2020/2/6, 53, 33, 10, 28, 
2020/2/7, 61, 41, 16, 23, 1
2020/2/8, 62, , 11, 26, 
2020/2/11, 64, 14, 6, 31, 
2020/2/12, 27, 47, 16, 19, 
2020/2/13, 69, 37, 12, 27, 
2020/2/14, 63, 16, 6, 32, 
2020/2/15, 50, , 7, 27, 
2020/2/18, 24, 17, 24, 13, 1
2020/2/19, 26, 16, 29, 9, 
2020/2/20, 51, 21, 22, 22, 1
2020/2/21, 50, 22, 13, 29, 
2020/2/22, 61, , 20, 26, 
2020/2/25, 82, , 24, 30, 
2020/2/27, 31, 19, 31, 13, 
2020/2/28, 44, 52, 23, 20, 
2020/2/29, 82, , 13, 27, 
2020/1/3, 91, 34, 6, 24, 
2020/1/4, 89, 22, , 31, 
2020/1/5, 63, 10, , 23, 
2020/1/6, 33, , 3, 18, 1
2020/1/8, 75, 23, 18, 31, 
2020/1/9, 57, 18, 17, 19, 
2020/1/10, 43, 22, 22, 18, 
2020/1/11, 45, , 17, 23, 
2020/1/14, 99, 23, 28, 32, 
2020/1/15, 60, 29, 32, 24, 
2020/1/16, 57, 28, 30, 11, 
2020/1/17, 57, 19, 9, 18, 
2020/1/18, 54, 38, 13, 32, 11
2020/1/19, 57, , , 16, 
2020/1/29, 23, 15, , 23, 
2020/1/30, 20, 26, 19, 17, 
2020/1/31, 42, 9, 24, 18, 
2020/2/1, 20, , 19, 17, 
2019/10/2, 35, 19, 22, 12, 
2019/10/3, 43, 17, 15, 12, 
2019/10/4, 34, 16, 17, 13, 
2019/10/5, 31, 18, 25, 7, 
2019/10/6, 35, , 22, 5, 
2019/10/8, 26, 10, 15, 7, 1
2019/10/9, 27, 14, 25, 6, 
2019/10/10, 28, 17, 32, 24, 
2019/10/11, 37, 29, 24, 43, 1
2019/10/12, 64, 34, 27, 15, 
2019/10/13, 71, 29, 25, 7, 
2019/10/14, 54, 16, 31, 17, 
2019/10/15, 29, 21, 23, 31, 
2019/10/16, 52, 19, 24, 27, 
2019/10/17, 52, 17, 26, 16, 
2019/10/18, 41, 17, 36, 22, 
2019/10/19, 36, 16, 31, 13, 
2019/10/22, 37, 12, 22, 15, 
2019/10/23, 32, 12, 23, , 
2019/10/24, 25, 15, 18, 36, 
2019/10/25, 33, 24, 19, 34, 
2019/10/26, 56, 19, 39, 32, 
2019/10/27, 53, , 54, 22, 
2019/10/28, 55, 30, 26, 26, 
2019/10/29, 68, 33, 25, 22, 
2019/10/30, 64, 33, 21, 21, 
2019/11/1, 61, 19, 16, 12, 
2019/11/2, 34, , 12, 15, 
2019/11/3, 61, 24, , 10, 
2019/11/5, 38, 20, , 14, 
2019/11/6, 42, 19, , 22, 
2019/11/7, 41, 18, 12, 15, 1
2019/11/8, 43, 13, , 19, 
2019/11/9, 32, 14, 16, 32, 
2019/11/10, 36, 25, 16, 8, 
2019/11/11, 55, 15, 4, 11, 1
2019/11/12, 35, 21, 9, 17, 
2019/11/13, 49, 22, 9, 12, 
2019/11/14, 47, 13, 13, , 
2019/11/15, 26, 15, 3, 18, 
2019/11/16, 29, 15, 8, 16, 
2019/11/17, 35, , 13, 17, 1
2019/11/18, 39, 12, 9, 18, 
2019/11/19, 32, 17, 4, 35, 2
2019/11/20, 45, 18, 8, 27, 
2019/11/21, 49, , , , 
2019/11/23, 40, , 26, 17, 
2019/11/26, 52, 15, 18, 17, 
2019/11/27, 27, 24, 12, 30, 
2019/11/28, 53, 21, 20, 21, 
2019/11/29, 47, 22, 19, 22, 
2019/11/30, 50, , 18, 19, 
2019/12/3, 21, 9, 16, 16, 
2019/12/4, 18, 18, 12, 23, 
2019/12/5, 55, 14, 16, 20, 1
2019/12/6, 31, 9, 16, 19, 
2019/12/7, 14, 28, 10, 26, 
2019/12/10, 38, 28, , 33, 
2019/12/11, 80, 17, , 24, 
2019/12/12, 70, 22, 16, 28, 
2019/12/13, 54, 9, 26, 21, 
2019/12/14, 23, , 15, 27, 
2019/12/16, 24, 2, 21, 22, 
2019/12/17, 10, , 23, 25, 
2019/12/18, 35, 11, 27, 11, 
2019/12/19, 29, 24, 28, 8, 
2019/12/20, 54, 21, 19, 17, 
2019/12/21, 56, , , 14, 
2019/12/24, 53, 7, , 11, 
2019/12/25, 21, 11, , 15, 
2019/12/26, 44, 21, 14, 21, 
2019/12/27, 49, 13, 9, 21, 
2019/12/28, 48, , , 14, 
2019/7/2, 29, 15, 22, 8, 
2019/7/3, 41, 20, 21, 18, 
2019/7/4, 51, 20, 22, 18, 
2019/7/5, 50, 15, 21, 18, 1
2019/7/6, 37, 19, 29, 14, 
2019/7/7, 46, 15, 23, 8, 
2019/7/8, 41, 14, 25, 12, 
2019/7/9, 38, 17, 29, 9, 
2019/7/10, 50, 17, 33, 15, 
2019/7/11, 51, 20, 38, 22, 
2019/7/12, 53, 24, 23, 10, 
2019/7/13, 55, 30, 28, 17, 1
2019/7/14, 63, , 30, 6, 
2019/7/16, 49, 18, 28, 7, 
2019/7/17, 46, 18, 24, 6, 
2019/7/18, 44, 13, 25, 7, 1
2019/7/19, 33, 9, 19, 7, 
2019/7/20, 24, 8, 15, 4, 
2019/7/21, 17, 10, 26, 4, 
2019/7/22, 19, 15, 24, 14, 
2019/7/23, 46, 16, 22, 8, 
2019/7/24, 49, 12, 15, 12, 
2019/7/25, 40, 12, 16, 11, 
2019/7/26, 37, 14, 19, 6, 9
2019/7/27, 29, 13, 16, 9, 
2019/7/28, 26, 13, 24, 5, 
2019/7/29, 23, 12, 24, 5, 
2019/7/30, 33, 13, 24, 6, 
2019/7/31, 32, 13, 25, 7, 
2019/8/1, 29, 17, 23, 7, 1
2019/8/2, 43, 15, 23, 6, 
2019/8/3, 40, 11, 18, 4, 
2019/8/4, 36, 9, 21, 3, 
2019/8/5, 22, 9, 21, 5, 1
2019/8/6, 24, 8, 14, 5, 
2019/8/7, 21, 9, 11, 10, 
2019/8/8, 29, 13, 9, 8, 
2019/8/9, 41, 14, 18, 13, 
2019/8/10, 28, 17, 25, 7, 
2019/8/11, 33, 15, 25, 5, 
2019/8/12, 31, 9, 27, 5, 
2019/8/13, 19, 12, 28, 6, 
2019/8/14, 29, 12, 27, 6, 
2019/8/15, 27, 8, 25, 4, 
2019/8/16, 21, 9, 18, 5, 
2019/8/17, 25, 7, 18, 3, 
2019/8/18, 23, 8, 17, 4, 
2019/8/19, 22, 11, 27, 5, 
2019/8/20, 32, 16, 29, 6, 
2019/8/21, 36, 14, 31, 13, 
2019/8/22, 40, 17, 46, 23, 
2019/8/23, 49, 22, 40, 24, 1
2019/8/24, 57, 18, 31, 8, 
2019/8/25, 52, 18, 26, 4, 1
2019/8/26, 43, 18, 31, 10, 1
2019/8/27, 44, 18, 26, 7, 1
2019/8/28, 53, 15, 26, 8, 
2019/8/29, 46, 12, 24, 9, 
2019/8/30, 30, 13, 22, 18, 
2019/8/31, 36, 14, 25, 6, 
2019/9/1, 43, 13, 26, 4, 
2019/9/2, 32, 18, 19, 22, 
2019/9/3, 45, 25, 26, 33, 1
2019/9/4, 61, 24, 36, 26, 
2019/9/5, 57, 19, 34, 16, 
2019/9/6, 49, 19, 33, 15, 
2019/9/7, 45, 15, 35, 18, 1
2019/9/8, 37, 23, 29, 28, 
2019/9/9, 58, 25, 22, 13, 
2019/9/10, 58, 22, 22, 6, 
2019/9/11, 42, 19, 27, 12, 
2019/9/12, 38, 14, 32, 15, 
2019/9/13, 39, 17, 28, 19, 1
2019/9/14, 47, 17, 33, 10, 
2019/9/15, 48, 17, 28, 15, 
2019/9/16, 48, , 29, 19, 1
2019/9/18, 60, 19, 22, 22, 1
2019/9/19, 50, 23, 25, 14, 
2019/9/20, 56, 19, 18, 19, 
2019/9/21, 47, 7, 16, 9, 
2019/9/22, 18, 14, 19, 14, 1
2019/9/23, 18, 19, 15, 22, 1
2019/9/24, 42, 20, 12, 18, 
2019/9/25, 45, 18, 18, 11, 
2019/9/26, 43, 16, 20, 9, 
2019/9/27, 38, 16, 18, 10, 
2019/9/28, 37, 14, 17, 10, 
2019/9/29, 35, 13, 19, 8, 
2019/9/30, 36, 20, 11, 16, 
2019/10/1, 39, 16, 17, 11, 
2019/4/2, 57, 18, 28, 23, 1
2019/4/3, 55, 17, 31, 11, 
2019/4/4, 42, 13, 28, 21, 
2019/4/5, 21, 12, 25, 24, 
2019/4/6, 25, 13, 26, 18, 
2019/4/7, 31, 15, 24, 16, 
2019/4/8, 38, 18, 24, 28, 
2019/4/9, 38, 20, 28, 17, 
2019/4/10, 40, 17, 28, 11, 
2019/4/11, 39, 12, 28, 12, 
2019/4/12, 28, 13, 27, 16, 
2019/4/13, 33, 15, 19, 17, 
2019/4/14, 40, 16, 12, 12, 
2019/4/15, 45, 12, 28, 16, 
2019/4/16, 36, 15, 29, 24, 
2019/4/17, 37, 14, 33, 16, 
2019/4/18, 30, 15, 25, 20, 
2019/4/19, 30, 17, 26, 18, 
2019/4/20, 46, 13, 34, 9, 
2019/4/21, 34, 13, 39, 10, 
2019/4/22, 32, 17, 39, 17, 1
2019/4/23, 51, 18, 29, 21, 
2019/4/24, 35, 13, 29, 22, 1
2019/4/25, 27, 21, 26, 16, 
2019/4/26, 42, 24, 30, 13, 
2019/4/27, 50, 18, 30, 10, 
2019/4/28, 36, 14, 29, 14, 
2019/4/29, 39, 11, 31, 16, 1
2019/4/30, 33, 16, 25, 12, 
2019/5/1, 40, 17, 22, 6, 
2019/5/2, 43, 18, 29, 12, 
2019/5/3, 39, 21, 29, 11, 1
2019/5/4, 47, 20, 31, 10, 
2019/5/5, 43, 18, 30, 16, 1
2019/5/6, 42, 20, 29, 14, 1
2019/5/7, 43, 16, 15, 15, 1
2019/5/8, 32, 16, 17, 18, 
2019/5/9, 30, 15, 15, 17, 
2019/5/10, 32, 23, 18, 13, 
2019/5/11, 35, 14, 30, 8, 
2019/5/12, 17, 12, 34, 12, 
2019/5/13, 28, 11, 38, 14, 
2019/5/14, 22, 17, 33, 26, 1
2019/5/15, 42, 21, 36, 17, 1
2019/5/16, 52, 23, 28, 7, 
2019/5/17, 48, 16, 26, 8, 
2019/5/18, 29, 13, 27, 8, 
2019/5/19, 26, 11, 22, 9, 
2019/5/20, 24, 9, 19, 8, 
2019/5/21, 15, 9, 21, 9, 
2019/5/22, 33, 10, 24, 8, 
2019/5/23, 26, 11, 21, 6, 
2019/5/24, 28, 11, 26, 6, 
2019/5/25, 20, 15, 30, 6, 
2019/5/26, 28, 14, 29, 6, 
2019/5/27, 31, 14, 22, 4, 
2019/5/28, 35, 16, 29, 8, 1
2019/5/29, 22, 16, 30, 9, 
2019/5/30, 36, 14, 28, 13, 
2019/5/31, 31, 17, 36, 21, 1
2019/6/1, 34, 22, 41, 25, 2
2019/6/2, 48, 17, 35, 11, 1
2019/6/3, 40, 13, 18, 8, 
2019/6/4, 41, 12, 24, 9, 
2019/6/5, 31, 14, 26, 8, 
2019/6/6, 28, 14, 23, 14, 
2019/6/7, 33, 16, 26, 13, 
2019/6/8, 38, 12, 29, 6, 
2019/6/9, 30, 10, 25, 7, 
2019/6/10, 27, 8, 27, 5, 1
2019/6/11, 27, 7, 28, 8, 
2019/6/12, 25, 11, 28, 8, 
2019/6/13, 25, 12, 30, 6, 
2019/6/14, 27, 11, 21, 16, 
2019/6/15, 28, 14, 25, 13, 1
2019/6/16, 37, 12, 28, 5, 
2019/6/17, 33, 10, 25, 18, 1
2019/6/18, 30, 14, 18, 11, 
2019/6/19, 34, 25, 19, 14, 1
2019/6/20, 48, 15, 26, 6, 
2019/6/21, 40, 13, 23, 8, 
2019/6/22, 33, 16, 20, 14, 
2019/6/23, 44, 15, 14, 11, 
2019/6/24, 39, 11, 16, 19, 
2019/6/25, 29, 12, 16, 16, 
2019/6/26, 38, 13, 16, 15, 5
2019/6/27, 41, 13, 17, 19, 
2019/6/28, 37, 10, 24, 10, 
2019/6/29, 29, 11, 26, 6, 
2019/6/30, 24, 13, 23, 4, 
2019/7/1, 24, 14, 23, 6, 
2019/1/2, 61, 20, 16, 14, 2
2019/1/3, 58, 23, 10, 15, 
2019/1/4, 67, 31, 12, 18, 
2019/1/5, 84, 29, 16, 21, 1
2019/1/6, 81, 33, 9, 26, 2
2019/1/7, 86, 36, 13, 31, 1
2019/1/8, 92, 39, 8, 32, 2
2019/1/9, 91, 49, 5, 32, 1
2019/1/10, 113, 39, 16, 24, 
2019/1/11, 90, 17, 22, 19, 
2019/1/12, 49, 17, 17, 22, 
2019/1/13, 50, 26, 15, 27, 
2019/1/14, 67, 32, 10, 40, 
2019/1/15, 80, 41, 9, 36, 
2019/1/16, 98, 52, 2, 34, 
2019/1/17, 128, 33, 23, 18, 
2019/1/18, 92, 17, 18, 21, 
2019/1/19, 51, 16, 21, 17, 
2019/1/20, 44, 16, 28, 5, 
2019/1/21, 43, 14, 23, 12, 
2019/1/22, 30, 15, 24, 15, 
2019/1/23, 29, 13, 27, 9, 
2019/1/24, 26, 17, 23, 12, 
2019/1/25, 32, 15, 14, 13, 
2019/1/26, 32, , , , 
2019/2/6, 84, 42, 9, 35, 
2019/2/7, 104, 34, 21, 20, 
2019/2/8, 78, 21, 21, 27, 
2019/2/9, 50, 23, 21, 26, 
2019/2/10, 53, 19, 23, 13, 
2019/2/11, 45, 16, 24, 18, 1
2019/2/12, 35, 17, 15, 25, 
2019/2/13, 43, 22, 17, 28, 1
2019/2/14, 58, 34, 21, 23, 1
2019/2/15, 73, 25, 21, 19, 
2019/2/16, 61, 24, 22, 21, 1
2019/2/17, 60, 35, 19, 23, 1
2019/2/18, 75, 30, 29, 11, 
2019/2/19, 64, 17, 21, 18, 
2019/2/20, 35, 24, 17, 30, 1
2019/2/21, 53, 45, 18, 29, 1
2019/2/22, 84, 51, 21, 23, 1
2019/2/23, 90, 51, 19, 28, 
2019/2/24, 93, 56, 23, 28, 
2019/2/25, 105, 46, 21, 28, 
2019/2/26, 87, 35, 21, 26, 
2019/2/27, 72, 30, 23, 22, 
2019/2/28, 60, 24, 27, 14, 
2019/3/1, 45, 15, 27, 9, 
2019/3/2, 27, 12, 24, 7, 
2019/3/3, 24, 14, 21, 15, 
2019/3/4, 35, 17, 22, 17, 
2019/3/5, 32, 21, 24, 10, 
2019/3/6, 38, 14, 28, 11, 
2019/3/7, 22, 19, 22, 23, 
2019/3/8, 41, 16, 26, 13, 
2019/3/9, 41, 14, 24, 14, 
2019/3/10, 38, 11, 18, 6, 
2019/3/11, 35, 10, 24, 13, 
2019/3/12, 26, 17, 26, 17, 
2019/3/13, 47, 13, 31, 8, 10
2019/3/14, 33, 14, 27, 15, 
2019/3/15, 35, 18, 23, 32, 
2019/3/16, 51, 32, 29, 34, 
2019/3/17, 75, 26, 27, 8, 
2019/3/18, 65, 16, 32, 11, 
2019/3/19, 37, 16, 29, 19, 
2019/3/20, 37, 15, 30, 15, 
2019/3/21, 35, 13, 27, 21, 
2019/3/22, 32, 17, 31, 24, 
2019/3/23, 44, 17, 30, 15, 
2019/3/24, 45, 18, 30, 13, 
2019/3/25, 50, 20, 28, 23, 
2019/3/26, 51, 17, 30, 15, 
2019/3/27, 37, 19, 31, 17, 
2019/3/28, 46, 22, 32, 24, 
2019/3/29, 52, 21, 31, 26, 
2019/3/30, 50, 22, 30, 24, 
2019/3/31, 54, 22, 32, 21, 1
2019/4/1, 53, 19, 24, 21, 1
2018/10/2, 61, 21, 30, 32, 
2018/10/3, 50, 24, 25, 36, 
2018/10/4, 53, 28, 20, 48, 1
2018/10/5, 60, 31, 35, 34, 
2018/10/6, 68, 24, 29, 23, 1
2018/10/7, 60, 20, 30, 8, 
2018/10/8, 47, 15, 28, 23, 
2018/10/9, 35, 19, 24, 27, 
2018/10/10, 39, 25, 30, 26, 
2018/10/11, 54, 23, 27, 18, 1
2018/10/12, 50, 23, 20, 22, 
2018/10/13, 48, 20, 23, 17, 
2018/10/14, 46, 22, 29, 7, 
2018/10/15, 46, 19, 22, 20, 1
2018/10/16, 38, 18, 18, 15, 
2018/10/17, 46, 13, 21, 14, 
2018/10/18, 42, 13, 23, 14, 
2018/10/19, 34, 18, 20, 18, 1
2018/10/20, 47, 16, 21, 16, 
2018/10/21, 51, 13, 20, 16, 2
2018/10/22, 43, 19, 22, 26, 2
2018/10/23, 52, 28, 16, 27, 
2018/10/24, 67, 31, 21, 25, 
2018/10/25, 72, 32, 15, 35, 
2018/10/26, 72, 35, 17, 27, 
2018/10/27, 78, 25, 27, 7, 
2018/10/28, 60, 14, 27, 6, 
2018/10/29, 30, 12, 25, 16, 
2018/10/30, 30, 13, 24, 19, 
2018/10/31, 26, 15, 11, 25, 
2018/11/1, 34, 11, 22, 18, 
2018/11/2, 36, 18, 18, 16, 
2018/11/3, 41, 10, 21, 7, 
2018/11/4, 26, 9, 21, 16, 1
2018/11/5, 22, 11, 25, 19, 
2018/11/6, 17, 18, 20, 25, 6
2018/11/7, 38, 18, 23, 24, 4
2018/11/8, 38, 25, 16, 31, 
2018/11/9, 57, 22, 18, 28, 
2018/11/10, 54, 23, 26, 15, 1
2018/11/11, 49, 16, 20, 23, 1
2018/11/12, 48, 15, 16, 26, 1
2018/11/13, 53, 16, 17, 20, 
2018/11/14, 50, 20, 10, 23, 
2018/11/15, 55, 27, 12, 21, 1
2018/11/16, 60, 35, 13, 27, 2
2018/11/17, 72, 37, 15, 17, 
2018/11/18, 78, 26, 22, 18, 
2018/11/19, 58, 19, 12, 27, 
2018/11/20, 47, 26, 16, 30, 
2018/11/21, 56, 22, 17, 29, 
2018/11/22, 52, 18, 11, 37, 1
2018/11/23, 38, 29, 12, 38, 1
2018/11/24, 72, 24, 22, 21, 
2018/11/25, 61, 21, 23, 14, 
2018/11/26, 45, 22, 26, 17, 1
2018/11/27, 53, 35, 5, 38, 
2018/11/28, 73, 42, 6, 33, 
2018/11/29, 89, 32, 13, 30, 
2018/11/30, 74, 26, 14, 28, 1
2018/12/1, 62, 38, 9, 37, 3
2018/12/2, 80, 38, 5, 28, 1
2018/12/3, 82, 33, 12, 25, 
2018/12/4, 80, 20, 10, 24, 1
2018/12/5, 61, 40, 3, 34, 1
2018/12/6, 93, 33, 10, 27, 
2018/12/7, 80, 20, 18, 18, 
2018/12/8, 54, 16, 21, 18, 
2018/12/9, 40, 23, 13, 25, 
2018/12/10, 54, 27, 10, 19, 7
2018/12/11, 66, 22, 3, 27, 
2018/12/12, 60, 39, 15, 26, 3
2018/12/13, 89, 28, 28, 10, 
2018/12/14, 58, 31, 17, 31, 
2018/12/15, 61, 31, 24, 21, 
2018/12/16, 60, 24, 25, 24, 1
2018/12/17, 56, 31, 12, 68, 2
2018/12/18, 68, 24, 16, 20, 1
2018/12/19, 58, 30, 10, 28, 
2018/12/20, 68, 32, 9, 33, 2
2018/12/21, 67, 30, 10, 30, 3
2018/12/22, 71, 28, 10, 15, 
2018/12/23, 68, 11, 10, 8, 
2018/12/24, 42, 12, 7, 10, 
2018/12/25, 47, 16, 9, 11, 
2018/12/26, 52, 22, 4, 16, 1
2018/12/27, 65, 45, 3, 21, 1
2018/12/28, 104, 36, 19, 19, 
2018/12/29, 83, 20, 16, 13, 1
2018/12/30, 59, 13, 18, 7, 1
2018/12/31, 45, , , , 
2018/7/2, 50, 22, 35, 23, 
2018/7/3, 53, 21, 34, 17, 
2018/7/4, 49, 16, 53, 15, 
2018/7/5, 39, 12, 27, 13, 
2018/7/6, 39, 10, 26, 10, 1
2018/7/7, 31, 9, 22, 7, 
2018/7/8, 27, 11, 31, 8, 
2018/7/9, 35, 24, 29, 14, 
2018/7/10, 64, 28, 29, 15, 
2018/7/11, 70, 23, 34, 14, 
2018/7/12, 60, 23, 28, 10, 
2018/7/13, 59, 24, 20, 28, 
2018/7/14, 59, 25, 25, 17, 2
2018/7/15, 58, 22, 28, 12, 1
2018/7/16, 53, 18, 26, 10, 
2018/7/17, 50, 15, 22, 10, 
2018/7/18, 43, 17, 22, 10, 
2018/7/19, 35, 16, 22, 11, 
2018/7/20, 32, 15, 26, 8, 
2018/7/21, 43, 18, 25, 6, 
2018/7/22, 43, 13, 23, 5, 
2018/7/23, 30, 14, 20, 10, 
2018/7/24, 33, 15, 22, 13, 
2018/7/25, 39, 15, 22, 12, 
2018/7/26, 41, 13, 23, 11, 
2018/7/27, 35, 10, 20, 12, 
2018/7/28, 26, 11, 20, 10, 
2018/7/29, 27, 13, 25, , 
2018/7/30, 26, 13, 15, 9, 1
2018/7/31, 36, 12, 21, 7, 
2018/8/1, 24, 13, 36, 14, 1
2018/8/2, 31, 22, 49, 31, 
2018/8/3, 58, 37, 43, 53, 
2018/8/4, 76, 41, 54, 35, 
2018/8/5, 76, 61, 42, 25, 1
2018/8/6, 113, 49, 34, 12, 
2018/8/7, 88, 32, 33, 6, 
2018/8/8, 65, 14, 23, 5, 
2018/8/9, 32, 12, 23, 5, 
2018/8/10, 28, 13, 28, 8, 
2018/8/11, 31, 17, 29, 8, 
2018/8/12, 41, 12, 17, 7, 
2018/8/13, 35, 9, 25, 6, 
2018/8/14, 29, 11, 25, 8, 
2018/8/15, 25, 19, 28, 11, 
2018/8/16, 45, 24, 28, 8, 1
2018/8/17, 56, 22, 28, 8, 
2018/8/18, 48, 22, 44, 19, 
2018/8/19, 52, 19, 43, 21, 
2018/8/20, 49, 18, 36, 24, 1
2018/8/21, 46, 28, 29, 41, 
2018/8/22, 65, 29, 26, 35, 
2018/8/23, 67, 26, 36, 17, 1
2018/8/24, 64, 25, 40, 13, 
2018/8/25, 65, 20, 33, 5, 
2018/8/26, 51, 20, 36, 5, 
2018/8/27, 50, 17, 22, 23, 
2018/8/28, 49, 25, 19, 8, 1
2018/8/29, 56, 14, 28, 6, 
2018/8/30, 39, 16, 34, 9, 1
2018/8/31, 41, 19, 40, 24, 1
2018/9/1, 52, 23, 40, 19, 
2018/9/2, 59, 37, 33, 19, 
2018/9/3, 75, 35, 28, 16, 
2018/9/4, 71, 31, 26, 17, 
2018/9/5, 62, 38, 37, 15, 
2018/9/6, 70, 29, 38, 19, 
2018/9/7, 65, 40, 32, 32, 2
2018/9/8, 86, 38, 33, 18, 
2018/9/9, 86, 32, 35, 17, 
2018/9/10, 70, 22, 42, 17, 
2018/9/11, 61, 19, 40, 23, 
2018/9/12, 53, 23, 36, 31, 
2018/9/13, 56, 22, 28, 28, 1
2018/9/14, 55, 22, 28, 27, 
2018/9/15, 57, 28, 34, 23, 
2018/9/16, 66, 25, 37, 23, 1
2018/9/17, 62, 23, 19, 35, 
2018/9/18, 61, 19, 17, 12, 
2018/9/19, 47, 16, 22, 17, 1
2018/9/20, 37, 16, 21, 13, 
2018/9/21, 37, 13, 18, 12, 
2018/9/22, 28, 15, 25, 16, 
2018/9/23, 38, 19, 39, 11, 
2018/9/24, 48, 20, 33, 31, 1
2018/9/25, 44, 26, 30, 46, 
2018/9/26, 59, 37, 23, 37, 1
2018/9/27, 72, 30, 37, 23, 1
2018/9/28, 62, 24, 33, 26, 
2018/9/29, 53, 24, 32, 33, 
2018/9/30, 53, 24, 30, 20, 
2018/10/1, 53, 26, 31, 22, 9
2018/4/2, 48, 22, 34, 14, 1
2018/4/3, 47, 23, 31, 11, 
2018/4/4, 43, 32, 32, 20, 
2018/4/5, 57, 30, 24, 30, 
2018/4/6, 63, 24, 22, 24, 
2018/4/7, 53, 16, 27, 25, 
2018/4/8, 44, 14, 35, 13, 
2018/4/9, 40, 14, 32, 24, 
2018/4/10, 36, 14, 39, 16, 2
2018/4/11, 31, 14, 39, 11, 1
2018/4/12, 30, 16, 31, 25, 
2018/4/13, 36, 18, 32, 18, 1
2018/4/14, 40, 15, 31, 14, 
2018/4/15, 36, 17, 31, 8, 
2018/4/16, 34, 24, 24, 26, 1
2018/4/17, 49, 25, 23, 26, 
2018/4/18, 56, 27, 24, 30, 
2018/4/19, 66, 24, 39, 27, 1
2018/4/20, 68, 26, 23, 25, 
2018/4/21, 69, 28, 24, 25, 
2018/4/22, 74, 21, 26, 13, 
2018/4/23, 63, 28, 29, 19, 
2018/4/24, 74, 34, 34, 12, 
2018/4/25, 84, 27, 35, 6, 
2018/4/26, 71, 20, 33, 10, 
2018/4/27, 55, 18, 32, 11, 
2018/4/28, 46, 13, 33, 15, 
2018/4/29, 35, 13, 35, 15, 
2018/4/30, 34, 14, 33, 20, 
2018/5/1, 39, 12, 38, 10, 
2018/5/2, 35, 13, 23, 22, 1
2018/5/3, 35, 14, 33, 11, 
2018/5/4, 41, 17, 37, 14, 
2018/5/5, 46, 20, 36, 27, 
2018/5/6, 55, 22, 40, 29, 
2018/5/7, 62, 22, 37, 25, 1
2018/5/8, 62, 29, 43, 12, 
2018/5/9, 74, 21, 34, 8, 
2018/5/10, 56, 18, 36, 10, 
2018/5/11, 39, 21, 40, 16, 
2018/5/12, 48, 21, 38, 7, 1
2018/5/13, 47, 14, 37, 6, 1
2018/5/14, 38, 16, 38, 7, 
2018/5/15, 38, 14, 41, 11, 
2018/5/16, 37, 15, 44, 16, 
2018/5/17, 46, 19, 45, 20, 1
2018/5/18, 56, 26, 38, 20, 1
2018/5/19, 67, 34, 43, 19, 
2018/5/20, 78, 21, 44, 16, 
2018/5/21, 61, 21, 43, 16, 
2018/5/22, 61, 20, 40, 25, 1
2018/5/23, 58, 20, 32, 19, 1
2018/5/24, 55, 20, 30, 27, 1
2018/5/25, 60, 17, 26, 24, 
2018/5/26, 56, 19, 29, 24, 
2018/5/27, 57, 17, 41, 7, 
2018/5/28, 52, 15, 44, 10, 
2018/5/29, 41, 14, 36, 14, 2
2018/5/30, 35, 11, 37, 12, 
2018/5/31, 31, 10, 26, 11, 
2018/6/1, 27, 10, 32, 10, 
2018/6/2, 24, 12, 35, 5, 
2018/6/3, 27, 11, 35, 7, 
2018/6/4, 27, 10, 35, 12, 
2018/6/5, 25, 10, 33, 11, 
2018/6/6, 22, 12, 36, 13, 
2018/6/7, 22, 11, 33, 15, 1
2018/6/8, 30, 10, 25, 23, 
2018/6/9, 24, 14, 26, 18, 
2018/6/10, 33, 13, 35, 9, 1
2018/6/11, 25, 13, 36, 11, 
2018/6/12, 32, 12, 35, 10, 
2018/6/13, 32, 14, 33, 5, 
2018/6/14, 34, 16, 32, 9, 
2018/6/15, 45, 14, 26, 6, 
2018/6/16, 35, 13, 34, 5, 
2018/6/17, 27, 16, 36, 6, 
2018/6/18, 40, 18, 37, 26, 
2018/6/19, 50, 30, 30, 26, 
2018/6/20, 66, 35, 32, 34, 
2018/6/21, 76, 33, 33, 28, 
2018/6/22, 74, 23, 33, 24, 1
2018/6/23, 58, 31, 28, 34, 1
2018/6/24, 72, 32, 32, 20, 1
2018/6/25, 74, 18, 33, 13, 
2018/6/26, 52, 12, 30, 9, 
2018/6/27, 31, 9, 27, 8, 
2018/6/28, 21, 11, 27, 9, 
2018/6/29, 29, 13, 30, 17, 
2018/6/30, 36, 20, 29, 16, 
2018/7/1, 54, 19, 41, 11, 
2018/1/2, 90, 41, 17, 28, 1
2018/1/3, 83, 26, 14, 23, 
2018/1/4, 48, 14, 13, 27, 
2018/1/5, 37, 15, 29, 23, 1
2018/1/6, 25, , , , 
2018/1/8, 28, 11, 20, 10, 
2018/1/9, 30, , 22, 20, 1
2018/1/12, 58, 35, 4, 30, 
2018/1/13, 63, 17, 26, 18, 1
2018/1/14, 37, 10, 26, 18, 1
2018/1/15, 23, 19, 10, 32, 1
2018/1/16, 59, 40, 4, 36, 
2018/1/17, 76, , , , 
2018/1/20, 39, 20, 24, 16, 
2018/1/21, 71, 7, 24, 8, 1
2018/1/22, 154, 6, 23, 12, 
2018/1/23, 28, 9, 21, 15, 
2018/1/24, 39, 26, 10, 27, 
2018/1/25, 63, 23, 27, 20, 
2018/1/26, 45, 14, 25, 15, 
2018/1/27, 32, 14, 26, 9, 1
2018/1/28, 39, 11, 26, 8, 1
2018/1/29, 27, 9, 24, 9, 1
2018/1/30, 26, 13, 24, 12, 
2018/1/31, 35, 17, 18, 19, 
2018/2/1, 48, 14, 30, 8, 1
2018/2/2, 21, 16, 28, 10, 1
2018/2/3, 30, 17, 24, 15, 
2018/2/4, 40, 9, 30, 7, 
2018/2/5, 17, 11, 25, 10, 
2018/2/6, 26, 15, 25, 11, 
2018/2/7, 45, 12, 30, 15, 33
2018/2/8, 40, 17, 23, 21, 
2018/2/9, 54, 19, 23, 21, 1
2018/2/10, 52, 14, 30, 7, 1
2018/2/11, 32, 11, 27, 13, 1
2018/2/12, 19, 11, 28, 18, 1
2018/2/13, 30, 17, 27, 27, 
2018/2/14, 40, 16, 26, 23, 1
2018/2/15, 32, 18, 28, 24, 1
2018/2/16, 37, 27, 17, 32, 1
2018/2/17, 65, 27, 23, 30, 2
2018/2/18, 68, 17, 30, 23, 1
2018/2/19, 43, 11, 22, 23, 
2018/2/20, 36, 17, 22, 24, 1
2018/2/21, 50, 18, 24, 25, 
2018/2/22, 46, 15, 25, 23, 
2018/2/23, 38, 20, 24, 33, 1
2018/2/24, 54, 24, 29, 28, 1
2018/2/25, 64, 33, 30, 26, 1
2018/2/26, 82, 17, 27, 20, 1
2018/2/27, 44, 20, 28, 18, 
2018/2/28, 46, 19, 30, 15, 
2018/3/1, 43, 16, 28, 21, 
2018/3/2, 47, 21, 29, 17, 
2018/3/3, 42, 26, 36, 14, 
2018/3/4, 49, 14, 28, 21, 1
2018/3/5, 35, 19, 34, 17, 1
2018/3/6, 41, 20, 28, 22, 
2018/3/7, 48, 24, 27, 25, 
2018/3/8, 56, 20, 22, 18, 1
2018/3/9, 50, 23, 24, 13, 
2018/3/10, 52, 24, 33, 24, 
2018/3/11, 53, 26, 22, 16, 
2018/3/12, 55, 30, 27, 43, 
2018/3/13, 60, 18, 28, 30, 1
2018/3/14, 46, 17, 24, 32, 
2018/3/15, 37, 22, 31, 20, 
2018/3/16, 50, 17, 24, 22, 
2018/3/17, 48, 15, 26, 23, 
2018/3/18, 44, 11, 30, 12, 
2018/3/19, 33, 17, 30, 19, 8
2018/3/20, 35, 15, 34, 11, 
2018/3/21, 38, 13, 34, 15, 1
2018/3/22, 38, 15, 34, 16, 1
2018/3/23, 43, , , 13, 
2018/3/25, 30, , 37, 7, 
2018/3/26, 32, 10, 34, 11, 1
2018/3/27, 32, 11, 27, 10, 1
2018/3/28, 23, 13, 25, 11, 1
2018/3/29, 38, 11, 33, 18, 
2018/3/30, 26, 16, 36, 10, 
2018/3/31, 29, 22, 33, 16, 
2018/4/1, 43, 22, 34, 13, 
2017/10/2, 30, 23, 24, 18, 1
2017/10/3, 56, 19, 21, 18, 1
2017/10/4, 55, 22, 18, 21, 1
2017/10/5, 51, 23, 22, 16, 
2017/10/6, 64, 20, 8, 21, 1
2017/10/7, 51, , , , 
2017/10/9, 82, 58, 18, 54, 1
2017/10/10, 120, 61, 19, 58, 2
2017/10/11, 129, 59, 34, 44, 1
2017/10/12, 140, 40, 26, 23, 1
2017/10/13, 82, 40, 10, 32, 
2017/10/14, 81, 49, 14, 35, 
2017/10/15, 87, 51, 35, 24, 1
2017/10/16, 96, 64, 29, 22, 1
2017/10/17, 100, 30, 24, 19, 
2017/10/18, 67, 15, 20, 23, 
2017/10/19, 33, 19, 17, 22, 
2017/10/20, 47, 26, 10, 23, 
2017/10/21, 55, 25, 27, 9, 1
2017/10/22, 58, 18, 29, 8, 
2017/10/23, 29, 26, 24, 30, 
2017/10/24, 53, 22, 22, 33, 1
2017/10/25, 54, 37, 22, 29, 1
2017/10/26, 75, 32, 20, 27, 
2017/10/27, 72, 41, 45, 31, 
2017/10/28, 89, 57, 24, 28, 1
2017/10/29, 123, 20, 29, 20, 
2017/10/30, 52, 21, 26, 23, 2
2017/10/31, 57, 22, 20, 30, 4
2017/11/1, 58, 45, 25, 21, 1
2017/11/2, 95, 24, 22, 23, 
2017/11/3, 53, 15, 23, 23, 
2017/11/4, 28, 12, 28, 12, 
2017/11/5, 30, 13, 31, 6, 
2017/11/6, 29, 13, 23, 19, 1
2017/11/7, 33, 25, 24, 19, 1
2017/11/8, 51, 18, 25, 10, 
2017/11/9, 42, 18, 25, 14, 
2017/11/10, 46, 23, 16, 27, 1
2017/11/11, 60, 26, 19, 20, 
2017/11/12, 57, 14, 27, 7, 1
2017/11/13, 32, 12, 26, 14, 
2017/11/14, 22, 13, 24, 26, 
2017/11/15, 35, 39, 15, 33, 2
2017/11/16, 78, 48, 15, 43, 1
2017/11/17, 93, 46, 10, 46, 1
2017/11/18, 86, 55, 10, 47, 1
2017/11/19, 126, 42, 18, 38, 6
2017/11/20, 100, 36, 14, 43, 2
2017/11/21, 76, 53, 16, 29, 2
2017/11/22, 87, 41, 14, 21, 1
2017/11/23, 71, 32, 22, 15, 2
2017/11/24, 57, 26, 20, 25, 
2017/11/25, 54, 47, 2, 24, 1
2017/11/26, 95, 55, 7, 11, 
2017/11/27, 143, , , , 
2017/11/30, 55, 17, 21, 19, 
2017/12/1, 50, 16, 26, 13, 1
2017/12/2, 49, 12, 22, 20, 
2017/12/3, 45, 28, 22, 23, 
2017/12/4, 75, 16, 18, 18, 
2017/12/5, 49, 18, 16, 26, 2
2017/12/6, 52, 41, 8, 33, 2
2017/12/7, 82, 55, 5, 45, 3
2017/12/8, 129, 72, 7, 33, 1
2017/12/9, 158, 15, 21, 18, 1
2017/12/10, 39, 22, 28, 13, 1
2017/12/11, 45, 16, 28, 14, 
2017/12/12, 43, 33, 20, 26, 
2017/12/13, 68, 30, 11, 32, 1
2017/12/14, 66, 20, 15, 26, 1
2017/12/15, 49, 13, 19, 18, 1
2017/12/16, 25, 14, 23, 12, 
2017/12/17, 39, 16, 19, 22, 1
2017/12/18, 47, 19, 12, 25, 1
2017/12/19, 52, 28, 9, 31, 1
2017/12/20, 76, 20, 12, 28, 1
2017/12/21, 57, 30, 10, 34, 2
2017/12/22, 75, 53, 16, 32, 1
2017/12/23, 119, 28, 13, 21, 1
2017/12/24, 71, 22, 12, 15, 2
2017/12/25, 66, 25, 22, 17, 
2017/12/26, 70, 20, 18, 25, 
2017/12/27, 51, 18, 28, 14, 2
2017/12/28, 41, 14, 26, 12, 
2017/12/29, 24, 24, 18, 25, 1
2017/12/30, 39, 22, 10, 26, 
2017/12/31, 52, , , , 
2017/7/2, 55, 12, 38, 11, 
2017/7/3, 31, 34, 41, 28, 
2017/7/4, 65, 42, 22, 26, 
2017/7/5, 79, 20, 17, 11, 1
2017/7/6, 46, 21, 17, 11, 
2017/7/7, 28, 20, 35, 9, 1
2017/7/8, 50, 17, 35, 5, 
2017/7/9, 45, 13, 28, 3, 
2017/7/10, 33, 14, 42, 6, 26
2017/7/11, 36, 21, 26, 8, 
2017/7/12, 53, 14, 26, 9, 
2017/7/13, 31, 22, 32, 12, 1
2017/7/14, 57, 25, 30, 10, 
2017/7/15, 57, 27, 37, 11, 1
2017/7/16, 61, 29, 41, 14, 
2017/7/17, 71, 40, 27, 17, 
2017/7/18, 77, 30, 27, 10, 
2017/7/19, 58, 22, 21, 8, 
2017/7/20, 38, 25, 24, 6, 
2017/7/21, 53, 19, 21, 5, 
2017/7/22, 41, 21, , , 
2017/7/23, 39, 21, , , 4
2017/7/24, 44, 13, , , 
2017/7/25, 28, 49, 28, 11, 
2017/7/26, 74, 25, 27, 8, 10
2017/7/27, 56, 23, 18, 6, 7
2017/7/28, 46, 12, 18, 7, 
2017/7/29, 29, 12, 16, 4, 
2017/7/30, 26, 7, 25, 3, 
2017/7/31, 19, 18, 23, 7, 
2017/8/1, 39, 18, 25, 7, 
2017/8/2, 48, 21, 28, 7, 1
2017/8/3, 48, 21, 21, 7, 
2017/8/4, 54, 18, 16, 5, 1
2017/8/5, 35, 10, 26, 3, 
2017/8/6, 22, 20, 33, 4, 
2017/8/7, 42, 26, 29, 5, 
2017/8/8, 55, 27, 30, 5, 1
2017/8/9, 53, 25, 32, 4, 
2017/8/10, 49, 31, 38, 10, 1
2017/8/11, 64, 32, 40, 21, 1
2017/8/12, 71, 30, 53, 19, 1
2017/8/13, 77, 21, 47, 12, 2
2017/8/14, 55, 19, 25, 7, 1
2017/8/15, 43, 10, 25, 4, 
2017/8/16, 27, 12, 24, 6, 1
2017/8/17, 26, 18, 16, 5, 
2017/8/18, 49, 35, 21, 5, 1
2017/8/19, 80, 13, 36, 6, 1
2017/8/20, 35, 25, 44, 19, 1
2017/8/21, 55, 45, 34, 22, 1
2017/8/22, 83, 36, 26, 22, 
2017/8/23, 75, 39, 24, 9, 1
2017/8/24, 85, 19, 26, 8, 
2017/8/25, 45, 20, 25, 12, 
2017/8/26, 44, 12, 20, 12, 1
2017/8/27, 34, 18, 23, 8, 
2017/8/28, 36, 19, 19, 16, 
2017/8/29, 42, 23, 48, 14, 
2017/8/30, 61, 17, 31, 12, 
2017/8/31, 58, 13, 30, 8, 
2017/9/1, 42, 24, 35, 10, 1
2017/9/2, 57, 23, 46, 14, 
2017/9/3, 60, 14, 36, 7, 1
2017/9/4, 48, 17, 24, 7, 1
2017/9/5, 34, 7, 24, 7, 
2017/9/6, 34, , , , 
2017/9/11, 43, 25, 20, 7, 1
2017/9/12, 58, 29, 21, 7, 
2017/9/13, 56, 22, 19, 9, 
2017/9/14, 51, 28, 26, 6, 
2017/9/15, 59, 44, 26, 6, 1
2017/9/16, 93, 25, 28, 6, 
2017/9/17, 58, 9, 29, 5, 1
2017/9/18, 19, 36, 27, 15, 
2017/9/19, 72, 23, 25, 10, 
2017/9/20, 54, 34, 33, 13, 
2017/9/21, 67, 28, 23, 8, 1
2017/9/22, 56, 27, 28, 11, 
2017/9/23, 54, 21, 27, 18, 1
2017/9/24, 57, 16, 23, 19, 1
2017/9/25, 51, 18, 26, 10, 15
2017/9/26, 44, 23, 29, 13, 3
2017/9/27, 53, 22, 22, 18, 4
2017/9/28, 53, 25, 15, 20, 
2017/9/29, 53, 29, 19, 18, 1
2017/9/30, 65, 15, 30, 7, 1
2017/10/1, 42, 13, 29, 8, 1
2017/4/2, 56, 15, 35, 8, 1
2017/4/3, 30, 21, 32, 17, 
2017/4/4, 55, 45, 33, 17, 1
2017/4/5, 81, 39, 30, 22, 
2017/4/6, 79, 37, 31, 16, 1
2017/4/7, 78, 38, 32, 26, 1
2017/4/8, 79, 39, 42, 28, 
2017/4/9, 76, 36, 34, 24, 
2017/4/10, 76, 37, 31, 20, 1
2017/4/11, 75, 45, 33, 28, 1
2017/4/12, 82, 53, 28, 38, 1
2017/4/13, 106, 45, 28, 20, 1
2017/4/14, 97, 14, , 7, 1
2017/4/15, 41, 14, , 5, 
2017/4/16, 32, 15, 31, 9, 
2017/4/17, 35, 34, 26, 22, 
2017/4/18, 66, 67, 25, 20, 
2017/4/19, 131, 52, 33, 20, 1
2017/4/20, 98, 56, 30, 19, 
2017/4/21, 109, 53, 30, 18, 
2017/4/22, 101, 36, 39, 15, 
2017/4/23, 70, 27, 39, 13, 1
2017/4/24, 56, 47, 40, 20, 
2017/4/25, 94, 26, 37, 6, 1
2017/4/26, 63, 27, 31, 12, 
2017/4/27, 55, 44, 33, 12, 
2017/4/28, 84, 44, 31, 14, 1
2017/4/29, 101, 19, 38, 14, 2
2017/4/30, 43, 27, 34, 6, 1
2017/5/1, 52, 19, 33, 15, 
2017/5/2, 36, 33, 30, 22, 
2017/5/3, 61, 42, 30, 34, 1
2017/5/4, 82, 48, 27, 28, 1
2017/5/5, 83, 13, 30, 19, 
2017/5/6, 21, 20, 27, 16, 
2017/5/7, 39, 20, 33, 17, 
2017/5/8, 43, 29, 28, 28, 
2017/5/9, 61, 36, 20, 21, 
2017/5/10, 163, 21, 26, 15, 
2017/5/12, 49, 21, 27, 21, 
2017/5/13, 52, 23, 25, 20, 1
2017/5/14, 48, 22, 21, 12, 
2017/5/15, 40, 22, 23, 15, 
2017/5/16, 53, 27, 26, 17, 
2017/5/17, 50, 27, 26, 10, 
2017/5/18, 52, 28, 31, 8, 
2017/5/19, 45, 31, 31, 9, 
2017/5/20, 55, 16, 35, 18, 
2017/5/21, 32, 42, 31, 12, 
2017/5/22, 77, 47, 32, 12, 2
2017/5/23, 88, 42, 39, 15, 1
2017/5/24, 84, 57, 42, 22, 
2017/5/25, 104, 56, 32, 24, 1
2017/5/26, 103, 35, 28, 10, 1
2017/5/27, 78, 22, 24, 16, 
2017/5/28, 61, 23, 18, 8, 
2017/5/29, 54, 22, 20, 15, 
2017/5/30, 44, 21, 22, 11, 
2017/5/31, 49, 22, 26, 11, 
2017/6/1, 61, 25, 27, 13, 
2017/6/2, 66, 24, 22, 13, 
2017/6/3, 74, 10, 25, 9, 
2017/6/4, 65, 20, 25, 7, 
2017/6/5, 54, , 25, 10, 
2017/6/6, 50, , 24, 11, 
2017/6/7, 54, 51, 29, 22, 1
2017/6/8, 61, 49, 28, 19, 3
2017/6/9, 93, 42, 22, 11, 1
2017/6/10, 65, 24, 23, 9, 
2017/6/11, 42, 16, 18, 6, 
2017/6/12, 36, 23, 31, 13, 
2017/6/13, 62, , 16, 18, 
2017/6/15, 124, 27, 32, 6, 
2017/6/16, 65, 35, 33, 19, 
2017/6/17, 73, 36, 45, 23, 
2017/6/18, 69, 42, 47, 27, 
2017/6/19, 89, 59, 34, 32, 
2017/6/20, 112, 57, 17, 20, 
2017/6/21, 116, , , , 
2017/6/24, 119, 18, 21, 7, 
2017/6/25, 43, 13, 25, 6, 
2017/6/26, 26, 23, 20, 13, 
2017/6/27, 39, 17, 18, 10, 
2017/6/28, 39, 31, 24, 10, 
2017/6/29, 55, 35, 24, 8, 
2017/6/30, 55, 37, 24, 8, 
2017/7/1, 67, 26, 31, 6, 
2017/1/3, 61, 39, 22, 22, 1
2017/1/4, 74, 47, 5, 21, 
2017/1/5, 80, 19, 3, 21, 
2017/1/6, 46, 17, 7, 20, 
2017/1/7, 64, 20, 9, 22, 
2017/1/8, 58, 36, 11, 23, 1
2017/1/9, 92, 44, 21, 32, 1
2017/1/10, 105, 24, 23, 13, 2
2017/1/11, 61, 21, 24, 24, 1
2017/1/12, 52, 32, 7, 23, 
2017/1/13, 74, 20, 24, 16, 
2017/1/14, 58, 18, 25, 14, 
2017/1/15, 53, 20, 18, 18, 
2017/1/16, 60, 34, 14, 27, 
2017/1/17, 77, 48, 13, 35, 1
2017/1/18, 100, 35, 22, 19, 
2017/1/19, 62, 21, 14, 23, 
2017/1/20, 62, 41, 8, 36, 1
2017/1/21, 95, 39, , 29, 
2017/1/22, 101, 27, 28, 24, 1
2017/1/23, 70, 26, 26, 20, 1
2017/1/24, 63, 35, 18, 37, 
2017/1/25, 75, 54, 8, 40, 1
2017/1/26, 128, 16, 25, 26, 3
2017/1/27, 47, 24, 26, 27, 1
2017/1/28, 48, 25, 18, 34, 1
2017/1/29, 61, 19, 24, 15, 2
2017/1/30, 42, 14, 21, 22, 1
2017/1/31, 33, 20, 22, 24, 
2017/2/1, 53, 21, 23, 24, 
2017/2/2, 49, 27, 24, 27, 1
2017/2/3, 61, 39, 30, 14, 1
2017/2/4, 76, 32, 23, 11, 
2017/2/5, 64, 27, 32, 12, 
2017/2/6, 35, 48, 19, 30, 1
2017/2/7, 85, 29, 25, 17, 1
2017/2/8, 50, 21, 25, 27, 
2017/2/9, 39, 37, 16, 29, 1
2017/2/10, 124, 13, 17, 28, 30
2017/2/14, 60, 20, 25, 28, 
2017/2/15, 40, 20, 17, 18, 7
2017/2/16, 50, 20, 18, 27, 
2017/2/17, 53, 27, 18, 25, 
2017/2/18, 58, 31, 28, 24, 1
2017/2/19, 68, 9, 28, 11, 
2017/2/20, 24, 22, 26, 15, 1
2017/2/21, 61, 24, 25, 19, 1
2017/2/22, 62, 31, 20, 24, 1
2017/2/23, 72, 50, 22, 16, 1
2017/2/24, 88, 21, 24, 11, 1
2017/2/25, 42, 32, 28, 16, 
2017/2/26, 56, 11, 32, 11, 
2017/2/27, 17, 9, 24, 22, 
2017/2/28, 20, 17, 29, 16, 
2017/3/1, 35, 25, 13, 31, 
2017/3/2, 49, 25, 16, 33, 
2017/3/3, 55, 11, 28, 26, 2
2017/3/4, 32, 11, 29, 16, 1
2017/3/5, 28, 11, 22, 16, 
2017/3/6, 30, 23, 24, 17, 
2017/3/7, 46, 19, 21, 19, 
2017/3/8, 40, 17, 17, 30, 2
2017/3/9, 44, 30, 19, 36, 
2017/3/10, 59, 48, 16, 41, 1
2017/3/11, 85, 30, 34, 11, 1
2017/3/12, 63, 23, 33, 4, 
2017/3/13, 44, 37, 32, 10, 
2017/3/14, 73, 28, 25, 17, 
2017/3/15, 60, 34, 28, 21, 
2017/3/16, 70, 30, 26, 21, 
2017/3/17, 66, 35, 27, 22, 
2017/3/18, 72, 33, 38, 27, 
2017/3/19, 73, 35, 30, 23, 1
2017/3/20, 73, 29, 31, 9, 1
2017/3/21, 54, 28, 31, 13, 1
2017/3/22, 58, 23, 30, 16, 
2017/3/23, 47, 11, 32, 18, 
2017/3/24, 29, 11, 24, 27, 
2017/3/25, 27, 12, 30, 19, 
2017/3/26, 42, 10, 29, 19, 1
2017/3/27, 20, 27, 29, 23, 1
2017/3/28, 57, 31, 19, 30, 
2017/3/29, 58, 39, 18, 37, 
2017/3/30, 120, 49, 24, 36, 2
2017/4/1, 88, 22, 34, 12, 
2016/10/2, 42, 11, 28, 7, 
2016/10/3, 19, 18, 24, 19, 
2016/10/4, 46, 18, 22, 16, 1
2016/10/5, 41, 19, 26, 22, 
2016/10/6, 48, 27, 24, 22, 1
2016/10/7, 60, 30, 25, 19, 
2016/10/8, 66, 15, 27, 6, 1
2016/10/9, 43, 18, 29, 6, 1
2016/10/10, 44, 33, 26, 17, 
2016/10/11, 73, 32, 21, 26, 1
2016/10/12, 65, 15, 14, 29, 
2016/10/13, 44, 21, 22, 22, 1
2016/10/14, 45, 30, 30, 24, 
2016/10/15, 62, 24, 21, 21, 
2016/10/16, 52, 22, 17, 22, 
2016/10/17, 57, 31, 15, 30, 1
2016/10/18, 74, 24, 11, 26, 
2016/10/19, 64, 34, 12, 31, 
2016/10/20, 74, 35, 17, 27, 1
2016/10/21, 80, 46, 9, 30, 
2016/10/22, 100, 20, 18, 15, 1
2016/10/23, 56, 13, 23, 11, 
2016/10/24, 32, 14, 19, 20, 1
2016/10/25, 38, 20, 17, 20, 1
2016/10/26, 66, 25, 14, 21, 
2016/10/27, 54, 55, 14, 21, 
2016/10/28, 95, 54, 16, 25, 
2016/10/29, 104, 44, 19, 17, 
2016/10/30, 87, 29, 27, 22, 1
2016/10/31, 66, 31, 17, 34, 
2016/11/1, 79, 33, 22, 23, 1
2016/11/2, 75, 30, 14, 23, 
2016/11/3, 67, 27, 21, 23, 8
2016/11/4, 62, 36, 13, 24, 
2016/11/5, 83, 12, 21, 17, 1
2016/11/6, 38, 12, 25, 17, 
2016/11/7, 31, 12, 23, 17, 
2016/11/8, 39, 25, 21, 24, 
2016/11/9, 58, 18, 22, 20, 3
2016/11/10, 40, 26, 17, 28, 
2016/11/11, 54, 35, 3, 38, 1
2016/11/12, 72, 26, 18, 21, 1
2016/11/13, 66, 26, 17, 14, 
2016/11/14, 33, 13, 20, 14, 
2016/11/15, 39, 14, 21, 14, 
2016/11/16, 48, 15, 16, 29, 
2016/11/17, 50, 44, 12, 32, 1
2016/11/18, 93, 35, 13, 25, 
2016/11/19, 64, 26, 20, 27, 1
2016/11/20, 63, 13, 20, 12, 2
2016/11/21, 88, 20, 22, 30, 
2016/11/24, 15, 19, 16, 32, 1
2016/11/25, 356, 19, 21, 29, 2
2016/11/26, 496, 19, 13, 24, 
2016/11/27, 107, 8, 19, 14, 
2016/11/28, 33, 24, 10, 30, 
2016/11/29, 60, 33, 7, 20, 1
2016/11/30, 86, 18, 15, 24, 1
2016/12/1, 51, 16, 16, 15, 
2016/12/2, 41, 13, 12, 18, 1
2016/12/3, 40, 9, , 16, 2
2016/12/4, 26, 16, 22, 10, 2
2016/12/5, 41, 9, 18, 19, 
2016/12/6, 29, 20, 9, 32, 1
2016/12/7, 59, 35, 4, 23, 
2016/12/8, 89, 21, 13, 16, 1
2016/12/9, 62, 18, 16, 21, 1
2016/12/10, 58, 26, , 22, 
2016/12/11, 64, 25, 12, 22, 
2016/12/12, 66, 35, 4, 32, 1
2016/12/13, 86, 43, 3, 25, 1
2016/12/14, 109, 19, 26, 16, 2
2016/12/15, 53, 30, 14, 36, 
2016/12/16, 74, 10, 54, 15, 6
2016/12/17, 37, 11, 19, 11, 
2016/12/18, 43, 8, 22, 11, 
2016/12/19, 21, 17, 19, 23, 
2016/12/20, 53, 33, 15, 27, 
2016/12/21, 78, 37, 9, 32, 
2016/12/22, 89, 40, 7, 36, 1
2016/12/23, 91, 26, 6, 25, 
2016/12/24, 76, 25, 12, 16, 
2016/12/25, 74, 14, 15, 15, 1
2016/12/26, 53, 16, 9, 24, 
2016/12/27, 53, 29, 6, 26, 1
2016/12/28, 78, 29, 7, 22, 
2016/12/29, 79, 18, 12, 18, 
2016/12/30, 57, 20, 10, 29, 1
2016/12/31, 60, 37, 10, 22, 1
2017/1/1, 91, 29, 8, 12, 
2017/1/2, 84, 23, 18, 15, 2
2016/7/2, 21, 11, 25, 4, 1
2016/7/3, 41, 17, 40, 8, 1
2016/7/4, 50, 30, 20, 19, 
2016/7/5, 131, 44, 23, 26, 1
2016/7/6, 77, 29, 16, 22, 
2016/7/7, 73, 36, 37, 24, 1
2016/7/8, 86, 18, 32, 10, 1
2016/7/9, 56, 9, 38, 6, 1
2016/7/10, 36, 9, 14, 2, 1
2016/7/11, 29, 13, 20, 6, 
2016/7/12, 45, 14, 25, 5, 
2016/7/13, 37, 16, 33, 9, 
2016/7/14, 51, 19, 42, 18, 1
2016/7/15, 55, 23, 39, 22, 2
2016/7/16, 63, 29, , 23, 2
2016/7/17, 73, 10, 40, 14, 1
2016/7/18, 37, 25, 26, 25, 2
2016/7/19, 72, 32, 30, 19, 1
2016/7/20, 70, 17, 29, 9, 
2016/7/21, 51, 11, 19, 7, 
2016/7/22, 35, 10, 20, 7, 2
2016/7/23, 25, 20, 38, 9, 1
2016/7/24, 54, 15, 42, 17, 1
2016/7/25, 47, 24, 34, 30, 1
2016/7/26, 63, 17, 25, 11, 1
2016/7/27, 53, 22, 32, 9, 
2016/7/28, 63, 27, 24, 24, 1
2016/7/29, 61, 44, 25, 35, 1
2016/7/30, 299, 26, 31, 9, 1
2016/7/31, 78, 13, 23, 3, 1
2016/8/1, 30, 13, 29, 7, 
2016/8/2, 30, 20, 33, 10, 
2016/8/3, 41, 16, 19, 5, 
2016/8/4, 48, 9, 13, 4, 
2016/8/5, 28, 11, 28, 7, 1
2016/8/6, 30, 18, 42, 16, 1
2016/8/7, 47, 20, 52, 16, 1
2016/8/8, 59, 34, 40, 11, 
2016/8/9, 106, 50, 50, 18, 1
2016/8/10, 123, 37, 43, 11, 1
2016/8/11, 42, 50, 42, 18, 1
2016/8/12, 611, 52, 42, 24, 1
2016/8/25, 20, 26, 29, 9, 
2016/8/26, 71, 17, 27, 16, 
2016/8/27, 52, 24, 36, 10, 1
2016/8/28, 68, 9, 21, 4, 1
2016/8/29, 26, 27, 31, 7, 15
2016/8/30, 57, 35, 27, 8, 
2016/8/31, 73, 29, 30, 8, 
2016/9/1, 59, 42, 33, 24, 
2016/9/2, 75, 35, 35, 27, 1
2016/9/3, 74, 35, 43, 31, 
2016/9/4, 78, 35, 46, 29, 
2016/9/5, 75, 47, 37, 25, 1
2016/9/6, 102, 58, 28, 49, 1
2016/9/7, 129, 50, 28, 15, 1
2016/9/8, 111, 24, 24, 7, 
2016/9/9, 49, 23, 21, 10, 1
2016/9/10, 56, 14, 21, 5, 
2016/9/11, 33, 7, 19, 5, 
2016/9/12, 12, 29, 13, 20, 
2016/9/13, 66, 16, 21, 9, 
2016/9/14, 35, 21, 20, 9, 
2016/9/15, 48, 18, 19, 12, 1
2016/9/16, 47, , , , 
2016/9/19, 36, 16, 28, 20, 
2016/9/20, 50, 32, 27, 11, 2
2016/9/21, 67, 23, 26, 11, 
2016/9/22, 49, 12, 22, 10, 
2016/9/23, 29, 25, 20, 14, 
2016/9/24, 53, 12, , 12, 
2016/9/25, 32, 10, 24, 7, 
2016/9/26, 30, 28, 24, 9, 
2016/9/27, 57, 12, 26, 13, 1
2016/9/28, 36, 16, 31, 22, 
2016/9/29, 46, 26, 31, 19, 1
2016/9/30, 64, 40, 26, 30, 
2016/10/1, 84, 12, 25, 7, 
2016/4/2, 21, 15, , , 
2016/4/7, 42, , , 9, 
2016/4/8, 53, , , 7, 
2016/4/9, 49, , , , 
2016/4/10, 27, , , , 
2016/5/7, 56, 11, 28, 13, 
2016/5/8, 25, 18, 34, 7, 1
2016/5/9, 41, 18, 34, 17, 
2016/5/10, 49, 13, 32, 18, 
2016/5/11, 30, 14, 31, 24, 1
2016/5/12, 34, 15, 32, 21, 
2016/5/13, 43, 12, 29, 11, 1
2016/5/14, 37, 13, 41, 8, 1
2016/5/15, 29, 13, 45, 5, 1
2016/5/16, 44, 21, 41, 11, 
2016/5/17, 66, 23, 43, 9, 
2016/5/18, 63, 20, 38, 7, 
2016/5/19, 55, 14, 30, 8, 
2016/5/20, 48, 13, 29, 16, 
2016/5/21, 45, 22, 19, 16, 
2016/5/22, 62, 12, 31, 6, 
2016/5/23, 35, 24, 24, 22, 1
2016/5/24, 49, 20, 26, 21, 2
2016/5/25, 47, 24, 23, 21, 1
2016/5/26, 55, 27, 34, 15, 1
2016/5/27, 60, 26, 29, 14, 1
2016/5/28, 59, 15, 28, 13, 
2016/5/29, 35, 20, 26, 14, 
2016/5/30, 54, 15, 35, 10, 
2016/5/31, 35, 11, 32, 10, 1
2016/6/1, 31, 17, 35, 19, 
2016/6/2, 49, 16, 37, 20, 
2016/6/3, 41, 21, 36, 10, 
2016/6/4, 56, 13, 26, 11, 
2016/6/5, 39, 14, 20, 8, 
2016/6/6, 44, 18, 23, 15, 
2016/6/7, 51, 14, 24, 17, 
2016/6/8, 45, 20, 27, 19, 3
2016/6/9, 47, 12, 22, 7, 2
2016/6/10, 40, 12, 30, 4, 
2016/6/11, 58, 43, 26, 4, 
2016/6/12, 24, 5, 27, 3, 1
2016/6/13, 18, 7, 16, 4, 
2016/6/14, 17, 15, 20, 9, 
2016/6/15, 44, 14, 21, 9, 1
2016/6/16, 34, 17, 21, 5, 1
2016/6/17, 40, 15, 22, 9, 
2016/6/18, 36, , , , 
2016/6/20, 38, 14, 27, 12, 1
2016/6/21, 46, 19, 24, 19, 2
2016/6/22, 55, 20, 26, 14, 1
2016/6/23, 62, 16, 16, 9, 1
2016/6/24, 52, 10, 21, 6, 1
2016/6/25, 29, 17, 26, 4, 
2016/6/26, 46, 22, 33, 4, 
2016/6/27, 55, 22, 35, 18, 
2016/6/28, 59, 23, 30, 10, 1
2016/6/29, 60, 18, 23, 6, 
2016/6/30, 51, 17, 22, 6, 1
2016/7/1, 51, 9, 23, 6, 
2016/1/5, 47, 12, 28, 15, 
2016/1/6, 35, 20, 16, 31, 1
2016/1/7, 56, 12, 24, 18, 1
2016/1/8, 36, 9, 26, 16, 1
2016/1/9, 30, 16, 23, 20, 1
2016/1/10, 37, 19, 30, 6, 1
2016/1/11, 50, 24, 27, 21, 
2016/1/12, 57, 36, 14, 36, 
2016/1/13, 76, 28, 10, 28, 1
2016/1/14, 73, 24, 21, 20, 3
2016/1/15, 55, 15, 26, 16, 1
2016/1/16, 43, 10, 17, 14, 
2016/1/17, 38, 11, 14, 17, 1
2016/1/18, 30, 38, 23, 27, 1
2016/1/19, 90, 23, 18, 27, 1
2016/1/20, 62, 22, 17, 31, 
2016/1/21, 56, 18, 46, 22, 2
2016/1/22, 42, 17, 1, 21, 2
2016/1/23, 49, 12, 8, 18, 1
2016/1/24, 46, 22, 22, 12, 1
2016/1/25, 58, 24, 24, 23, 2
2016/1/26, 55, 25, 23, 28, 
2016/1/27, 58, 31, 15, 31, 1
2016/1/28, 72, 17, 22, 20, 1
2016/1/29, 48, 16, 24, 15, 
2016/1/30, 44, 18, 27, 16, 
2016/1/31, 42, 9, 27, 12, 1
2016/2/1, 27, 15, 24, 19, 
2016/2/2, 34, 20, 25, 10, 1
2016/2/3, 54, 12, 26, 14, 
2016/2/4, 34, 11, 21, 12, 
2016/2/5, 43, 13, 17, 26, 1
2016/2/6, 43, 42, 24, 24, 2
2016/2/7, 95, 22, 29, 13, 
2016/2/8, 57, 25, 21, 26, 1
2016/2/9, 62, 10, 22, 18, 1
2016/2/10, 32, 17, 20, 25, 1
2016/2/11, 56, 8, 20, 19, 1
2016/2/12, 22, 12, 18, 22, 2
2016/2/13, 42, 14, 18, 15, 1
2016/2/14, 38, 19, 34, 5, 
2016/2/15, 56, 17, 32, 9, 1
2016/2/16, 52, 12, 26, 16, 
2016/2/17, 42, 29, 24, 33, 2
2016/2/18, 69, 15, 26, 17, 
2016/2/19, 41, 24, 24, 18, 
2016/2/20, 63, 20, 27, 15, 
2016/2/21, 55, 17, 23, 16, 1
2016/2/22, 55, 67, 25, 24, 1
2016/2/23, 134, 38, 25, 25, 
2016/2/24, 70, 29, 16, 27, 1
2016/2/25, 64, 28, 31, 21, 
2016/2/26, 53, 10, 28, 17, 1
2016/2/27, 23, 7, 31, 7, 
2016/2/28, 25, 15, 32, 5, 
2016/2/29, 37, 19, 30, 13, 1
2016/3/1, 53, 28, 29, 16, 1
2016/3/2, 61, 9, 23, 10, 
2016/3/3, 31, 16, 33, 11, 
2016/3/4, 52, 11, 29, 10, 
2016/3/5, 39, , , , 
2016/3/8, 42, , , , 
2016/3/9, 45, , , , 
2016/3/16, 57, 22, 31, 21, 1
2016/3/17, 54, 27, 33, 25, 
2016/3/18, 66, 18, 20, 22, 1
2016/3/19, 47, 17, 23, 23, 
2016/3/20, 36, 10, 24, 18, 
2016/3/21, 29, 11, 25, 23, 
2016/3/22, 33, 13, 31, 10, 1
2016/3/23, 43, 14, 32, 12, 
2016/3/24, 39, 23, 35, 10, 1
2016/3/25, 63, 15, 32, 11, 1
2016/3/26, 47, 13, 25, 12, 1
2016/3/27, 36, 20, 26, 14, 
2016/3/28, 61, 26, 25, 17, 1
2016/3/29, 54, 21, 26, 22, 
2016/3/30, 43, 20, 29, 19, 
2016/3/31, 53, 10, 31, 11, 1
2016/4/1, 34, 15, 27, 6, 
2015/10/2, 68, 21, 29, 21, 1
2015/10/3, 57, 21, 30, 19, 1
2015/10/4, 58, 30, 26, 6, 3
2015/10/5, 63, 38, 25, 11, 
2015/10/6, 73, 29, 21, 19, 
2015/10/7, 56, 15, 41, 14, 2
2015/10/8, 36, 12, 29, 12, 1
2015/10/9, 25, 26, 19, 27, 1
2015/10/10, 55, 13, 23, 14, 1
2015/10/11, 29, 8, 22, 9, 1
2015/10/12, 22, 17, 24, 20, 
2015/10/13, 46, 15, 18, 14, 1
2015/10/14, 35, 16, 21, 23, 
2015/10/15, 52, 25, 17, 33, 1
2015/10/16, 66, 40, 16, 40, 1
2015/10/17, 79, 22, 25, 13, 4
2015/10/18, 54, 18, 23, 16, 1
2015/10/19, 32, 10, 19, 13, 1
2015/10/20, 29, 10, 20, 13, 1
2015/10/21, 38, 13, 22, 21, 
2015/10/22, 39, 20, 21, 31, 1
2015/10/23, 60, 46, 5, 45, 1
2015/10/24, 101, 41, 17, 22, 2
2015/10/25, 97, 16, 14, 19, 2
2015/10/26, 47, 12, 20, 22, 1
2015/10/27, 45, 20, 15, 30, 
2015/10/28, 57, 21, 21, 27, 1
2015/10/29, 63, 17, 24, 20, 2
2015/10/30, 34, 21, 20, 20, 2
2015/10/31, 54, 14, 27, 22, 1
2015/11/1, 35, 12, 21, 16, 1
2015/11/2, 35, 13, 23, 23, 1
2015/11/3, 33, 28, 19, 27, 2
2015/11/4, 58, 13, 25, 23, 2
2015/11/5, 31, 20, 13, 24, 2
2015/11/6, 52, 25, 14, 27, 
2015/11/9, 65, 28, 15, 31, 2
2015/11/10, 68, 27, 14, 31, 
2015/11/11, 70, 36, 11, 33, 
2015/11/12, 83, 43, 11, 35, 2
2015/11/13, 99, 38, 14, 28, 1
2015/11/14, 99, 35, 17, 26, 1
2015/11/15, 83, 29, 17, 23, 1
2015/11/16, 72, 39, 14, 30, 1
2015/11/17, 89, 29, 10, 31, 
2015/11/18, 68, 27, 8, 21, 1
2015/11/19, 63, 49, 6, 28, 1
2015/11/20, 100, 51, 12, 22, 1
2015/11/21, 109, 35, 27, 8, 3
2015/11/22, 67, 9, 26, 10, 1
2015/11/23, 24, 10, 21, 19, 
2015/11/24, 28, 28, 18, 29, 2
2015/11/25, 70, 15, 26, 13, 2
2015/11/26, 37, 36, 28, 13, 
2015/11/27, 49, 16, 18, 12, 1
2015/11/28, 36, , , , 
2015/11/30, 50, 15, 15, 30, 1
2015/12/1, 56, 29, 8, 25, 1
2015/12/2, 65, 53, 6, 33, 3
2015/12/3, 110, 43, 7, 37, 2
2015/12/4, 83, 43, 7, 31, 1
2015/12/5, 100, 48, 8, 34, 2
2015/12/6, 88, 46, 10, 26, 1
2015/12/7, 142, 35, 8, 24, 1
2015/12/8, 92, 27, 9, 19, 1
2015/12/9, 72, 21, 15, 21, 1
2015/12/10, 48, 19, 9, 19, 
2015/12/11, 52, 25, 7, 22, 1
2015/12/12, 63, 27, 12, 22, 
2015/12/13, 60, 24, 21, 14, 2
2015/12/14, 50, 39, 23, 14, 1
2015/12/15, 60, 40, 21, 18, 2
2015/12/16, 91, 44, 7, 33, 2
2015/12/17, 278, 52, 14, 23, 2
2015/12/18, 118, 47, 13, 25, 1
2015/12/19, 95, 30, 23, 21, 3
2015/12/20, 73, 22, 26, 25, 
2015/12/21, 106, 34, 4, 29, 1
2015/12/22, 77, 14, 10, 13, 2
2015/12/23, 50, 18, 10, 18, 1
2015/12/24, 56, 22, 6, 11, 1
2015/12/25, 64, 26, 10, , 
2015/12/28, 61, 32, 27, 20, 3
2015/12/29, 69, 35, 13, 32, 1
2015/12/30, 81, 30, 19, 18, 1
2015/12/31, 58, , , , 
2016/1/3, 62, 19, 24, 14, 2
2016/1/4, 41, 15, 19, 15, 1
2015/7/2, 35, 12, 21, 17, 
2015/7/3, 34, 8, , , 
2015/7/4, 32, , , , 2
2015/7/5, 25, 8, , , 
2015/7/6, 19, 13, 25, 14, 1
2015/7/7, 40, 13, 12, 10, 
2015/7/8, 42, 14, 29, 8, 
2015/7/9, 38, 31, 25, 20, 
2015/7/10, 68, 21, 29, 9, 1
2015/7/11, 53, 10, 25, 4, 1
2015/7/12, 24, 16, 30, 4, 
2015/7/13, 39, 20, 29, 8, 14
2015/7/14, 48, 20, 32, 13, 1
2015/7/15, 57, 21, 24, 11, 
2015/7/16, 57, , 13, 14, 
2015/7/19, 27, 9, 18, 7, 1
2015/7/20, 25, 5, 17, 7, 
2015/7/21, 17, 17, 14, 6, 
2015/7/22, 57, 11, 28, 9, 
2015/7/23, 31, 12, 30, 11, 1
2015/7/24, 32, 10, 23, 8, 
2015/7/25, 28, 17, 37, 6, 
2015/7/26, 39, 12, 28, 4, 1
2015/7/27, 37, 8, 24, 8, 
2015/7/28, 29, 14, 19, 7, 1
2015/7/29, 29, 9, 15, 6, 
2015/7/30, 23, 11, 14, 13, 
2015/7/31, 33, 12, 30, 7, 
2015/8/1, 37, 20, 39, 8, 
2015/8/2, 50, 13, 40, 12, 1
2015/8/3, 33, 12, 32, 9, 2
2015/8/4, 32, 10, 30, 6, 1
2015/8/5, 27, 13, 32, 7, 1
2015/8/6, 30, 10, 27, 8, 1
2015/8/7, 29, 13, 30, 6, 
2015/8/8, 44, 23, , 6, 
2015/8/9, 56, 27, 52, 19, 1
2015/8/10, 67, 36, 41, 33, 2
2015/8/11, 84, 19, 35, 6, 1
2015/8/12, 52, 9, 28, 8, 1
2015/8/13, 29, 10, 29, 6, 
2015/8/14, 24, 10, 26, 6, 1
2015/8/15, 21, 7, 22, 3, 1
2015/8/16, 18, 8, 15, 6, 1
2015/8/17, 18, 5, 21, 5, 
2015/8/18, 17, 11, 28, 6, 1
2015/8/19, 38, 17, 33, 15, 
2015/8/20, 51, 28, 38, 29, 1
2015/8/21, 69, 15, 31, 9, 1
2015/8/22, 52, 6, 15, 4, 1
2015/8/23, 18, 9, 23, 9, 
2015/8/24, 26, 17, 28, 8, 
2015/8/25, 39, 13, 26, 13, 
2015/8/26, 30, 10, 20, 9, 
2015/8/27, 26, 15, 14, 16, 
2015/8/28, 40, 12, 19, 9, 1
2015/8/29, 37, 13, 28, 13, 1
2015/8/30, 27, 31, 29, 14, 1
2015/8/31, 69, 19, 18, 13, 
2015/9/1, 43, 14, 36, 7, 1
2015/9/2, 39, 17, 34, 7, 1
2015/9/3, 42, 15, 33, 6, 
2015/9/4, 37, 17, 32, 7, 1
2015/9/5, 36, 19, 33, 12, 
2015/9/6, 45, 24, 43, 18, 2
2015/9/7, 54, 21, 40, 27, 1
2015/9/8, 61, 19, 38, 16, 
2015/9/9, 97, 21, 23, 21, 2
2015/9/10, 59, 15, 29, 8, 
2015/9/11, 51, 14, 29, 9, 1
2015/9/12, 38, 14, 31, 10, 
2015/9/13, 38, 18, 25, 12, 
2015/9/14, 30, 15, 28, 13, 1
2015/9/15, 36, 20, 23, 15, 1
2015/9/16, 42, 29, 22, 18, 1
2015/9/17, 53, 27, 28, 19, 1
2015/9/18, 64, 13, 31, 13, 1
2015/9/19, 30, 13, 42, 14, 
2015/9/20, 39, 16, 45, 20, 1
2015/9/21, 54, 19, 35, 23, 
2015/9/22, 50, 15, 29, 8, 1
2015/9/23, 40, 15, 30, 9, 
2015/9/24, 42, 22, 26, 18, 1
2015/9/25, 60, 25, 28, 22, 
2015/9/26, 65, 29, 37, 12, 1
2015/9/27, 71, 19, 36, 15, 
2015/9/28, 54, 28, 20, 39, 
2015/9/29, 78, 35, 25, 30, 1
2015/9/30, 79, 30, 25, 33, 2
2015/10/1, 75, 28, 28, 30, 1
2015/4/2, 61, 19, 34, 19, 1
2015/4/3, 57, 20, 33, 23, 1
2015/4/4, 58, 38, 19, 33, 2
2015/4/5, 91, , , , 
2015/4/7, 70, 27, 19, 26, 1
2015/4/8, 70, 21, 17, 25, 1
2015/4/9, 59, 12, 18, , 
2015/4/10, 46, 20, 30, , 1
2015/4/11, 57, 13, 36, , 1
2015/4/12, 50, 16, 35, , 
2015/4/13, 54, 28, 31, 12, 
2015/4/14, 71, 44, 29, 38, 2
2015/4/15, 87, 27, 21, 28, 
2015/4/16, 63, 24, 32, 13, 1
2015/4/17, 68, 19, 31, 15, 
2015/4/18, 53, 19, 32, 13, 1
2015/4/19, 40, 11, 37, 6, 1
2015/4/20, 35, 17, 30, 22, 12
2015/4/21, 47, 14, 28, 22, 1
2015/4/22, 40, 17, 26, 18, 1
2015/4/23, 133, 16, 20, 30, 
2015/4/24, 56, 16, 20, 26, 2
2015/4/25, 46, 17, 29, 10, 1
2015/4/26, 37, 12, 27, 19, 
2015/4/27, 32, 12, 32, 11, 1
2015/4/28, 37, 13, 30, 15, 
2015/4/29, 42, 15, 22, 24, 
2015/4/30, 44, 17, 23, 17, 1
2015/5/1, 49, 16, 21, 18, 1
2015/5/2, 49, 18, 23, 15, 1
2015/5/3, 50, 13, 20, 14, 2
2015/5/4, 36, 14, 23, 21, 1
2015/5/5, 33, 22, 33, 17, 
2015/5/6, 55, 17, 21, 31, 
2015/5/7, 46, 23, 29, 24, 2
2015/5/8, 61, 25, 24, 23, 1
2015/5/9, 63, 10, 23, 20, 
2015/5/10, 26, 13, 33, 14, 1
2015/5/11, 46, 20, 24, 43, 1
2015/5/12, 60, 35, 26, 36, 2
2015/5/13, 84, 49, 26, 31, 1
2015/5/14, 101, 17, 30, 10, 2
2015/5/15, 50, 24, 33, 10, 
2015/5/16, 56, 20, , 14, 1
2015/5/17, 49, 14, , , 1
2015/5/18, 49, 21, 29, 10, 1
2015/5/19, 52, 25, , , 
2015/5/20, 52, 20, 33, 10, 
2015/5/21, 47, 20, 23, 16, 
2015/5/22, 53, 14, 31, 10, 
2015/5/23, 50, 18, , , 1
2015/5/24, 50, 19, , , 
2015/5/25, 40, 19, 37, 15, 
2015/5/26, 48, 30, , , 1
2015/5/27, 57, 19, 34, 23, 1
2015/5/28, 46, 33, 25, 36, 1
2015/5/29, 69, 27, 33, 12, 6
2015/5/30, 54, 25, 27, 6, 2
2015/5/31, 51, 11, 17, 3, 1
2015/6/3, 32, 10, 31, 12, 1
2015/6/5, 59, 19, 31, 12, 
2015/6/6, 55, 22, 41, 13, 1
2015/6/7, 52, , , , 
2015/6/9, 86, 34, 36, 35, 1
2015/6/10, 80, 29, 34, 14, 1
2015/6/11, 69, 25, 38, 18, 
2015/6/12, 68, 16, 35, 15, 
2015/6/13, 44, 16, 29, 12, 
2015/6/14, 46, 13, 29, 13, 
2015/6/15, 38, 13, 37, 10, 
2015/6/16, 32, 20, 39, 10, 
2015/6/17, 53, 18, 41, 17, 
2015/6/18, 46, 18, 43, 27, 1
2015/6/19, 58, 28, 43, 34, 
2015/6/20, 72, 24, 47, 27, 3
2015/6/22, 84, 28, 29, 16, 
2015/6/23, 64, 16, 28, 9, 1
2015/6/24, 42, 11, 28, 7, 
2015/6/25, 27, 14, 30, 18, 
2015/6/26, 46, 18, 31, 23, 1
2015/6/27, 58, 12, 18, 7, 3
2015/6/28, 34, 9, , , 2
2015/6/29, 28, 19, 40, 18, 1
2015/6/30, 59, 29, , , 1
2015/7/1, 86, 13, 11, 17, 1
2015/1/2, 94, 39, 5, 41, 4
2015/1/3, 93, 34, 9, 38, 4
2015/1/4, 79, 42, 7, 46, 2
2015/1/5, 99, 55, 4, 46, 2
2015/1/6, 141, 30, 12, 46, 2
2015/1/7, 66, 34, 3, 20, 1
2015/1/8, 88, 31, 7, 31, 2
2015/1/9, 77, 30, 9, 32, 2
2015/1/10, 76, 20, 10, 39, 3
2015/1/11, 54, 28, 20, 23, 2
2015/1/12, 70, 27, 7, 42, 3
2015/1/13, 67, 53, 13, 38, 2
2015/1/14, 121, 15, 12, 33, 1
2015/1/15, 41, 9, 22, 22, 
2015/1/16, 14, 18, 20, 26, 
2015/1/17, 30, 16, 19, 28, 2
2015/1/18, 43, 4, 19, 14, 
2015/1/19, 10, 14, 25, 19, 
2015/1/20, 20, 10, 22, 20, 
2015/1/21, 20, 10, 22, 13, 5
2015/1/22, 25, 11, 20, 18, 1
2015/1/23, 26, 7, 17, 19, 
2015/1/24, 9, 9, 17, 23, 1
2015/1/25, 16, 22, 20, 21, 2
2015/1/26, 67, 18, 22, 17, 
2015/1/27, 50, 20, 21, 18, 1
2015/1/29, 34, 3, 20, 15, 
2015/1/30, 5, 3, 13, 21, 
2015/2/3, 30, , , , 1
2015/2/5, 21, 15, 24, 18, 1
2015/2/7, 46, 20, 14, 23, 1
2015/2/11, 56, 21, 9, 28, 1
2015/2/12, 61, 42, 7, 33, 2
2015/2/13, 92, , , 35, 
2015/2/15, 47, 17, 32, 6, 1
2015/2/16, 39, 9, 29, 13, 1
2015/2/17, 15, 12, 29, 7, 
2015/2/18, 34, 6, 24, 18, 1
2015/2/19, 19, 14, 22, 23, 1
2015/2/20, 40, 35, 2, 28, 1
2015/2/21, 78, 9, , 6, 2
2015/2/22, 17, 15, , 7, 1
2015/2/23, 36, 9, , 19, 1
2015/2/24, 23, 20, 20, 15, 1
2015/2/26, 39, 10, 27, 13, 1
2015/2/27, 18, 12, 35, 12, 1
2015/2/28, 23, 15, 24, 11, 2
2015/3/1, 33, 14, 31, 11, 1
2015/3/2, 36, 9, 19, 24, 1
2015/3/3, 17, 15, 21, 17, 1
2015/3/4, 43, 12, 23, 18, 1
2015/3/5, 23, 10, 27, 18, 
2015/3/6, 22, 17, 25, 35, 1
2015/3/7, 34, 25, 29, 22, 1
2015/3/8, 59, 27, 43, 15, 1
2015/3/9, 68, 26, 19, 34, 1
2015/3/10, 60, 39, 15, 37, 1
2015/3/11, 84, 31, 16, 29, 1
2015/3/12, 64, 70, 25, 12, 1
2015/3/13, 121, 28, 30, 12, 1
2015/3/14, 48, 23, 35, 9, 1
2015/3/15, 50, 17, 35, 10, 1
2015/3/16, 34, 24, 21, 32, 
2015/3/17, 55, 18, 18, 29, 3
2015/3/18, 35, 8, 25, 15, 1
2015/3/19, 23, 7, 29, 17, 
2015/3/20, 18, 23, 25, 22, 2
2015/3/21, 57, 21, 24, 12, 1
2015/3/22, 55, 14, 23, 13, 2
2015/3/23, 37, 17, 32, 6, 
2015/3/24, 42, 19, 36, 8, 
2015/3/25, 54, , 28, 10, 
2015/3/27, 45, 9, 23, 11, 
2015/3/28, 18, 12, 26, 7, 1
2015/3/29, 35, 10, 30, 5, 1
2015/3/30, 24, 5, 27, 9, 1
2015/3/31, 13, 11, 29, 10, 
2015/4/1, 34, 20, 32, 26, 1
2014/10/2, 48, 25, 28, 27, 1
2014/10/3, 54, 36, 32, 28, 2
2014/10/4, 67, 22, 34, 9, 
2014/10/5, 54, 8, 35, 9, 
2014/10/6, 8, 13, 13, 27, 1
2014/10/7, 18, 11, 15, 21, 
2014/10/8, 28, 13, 12, 17, 
2014/10/9, 23, 14, 9, 28, 1
2014/10/10, 26, 22, 13, 27, 1
2014/10/11, 50, 31, 21, 18, 
2014/10/12, 65, 14, 26, 14, 
2014/10/13, 18, 22, 15, 38, 2
2014/10/14, 47, 23, 15, 35, 2
2014/10/15, 45, 21, 15, 16, 
2014/10/16, 40, 20, 18, 13, 
2014/10/17, 33, 16, 14, 16, 1
2014/10/18, 27, 12, 23, 16, 
2014/10/19, 19, 15, 21, 18, 1
2014/10/20, 29, 39, 20, 32, 3
2014/10/21, 61, 52, 19, 45, 12
2014/10/22, 81, 63, 10, 53, 5
2014/10/23, 109, 31, 27, 26, 1
2014/10/24, 53, 37, 14, 33, 2
2014/10/25, 68, 34, 21, 30, 1
2014/10/26, 66, 41, 30, 30, 1
2014/10/27, 78, 47, 12, 41, 2
2014/10/28, 86, 42, 15, 28, 1
2014/10/29, 79, 36, 17, 33, 1
2014/10/30, 70, 41, 15, 43, 3
2014/10/31, 73, 48, 18, 32, 1
2014/11/1, 79, 26, 18, 17, 
2014/11/2, 46, 12, 9, 36, 
2014/11/3, 25, 20, 21, 27, 
2014/11/4, 32, 10, 25, 20, 
2014/11/5, 13, 14, 4, 37, 
2014/11/6, 30, 31, 17, 33, 2
2014/11/7, 58, 13, 26, 21, 
2014/11/8, 23, 14, 24, 22, 1
2014/11/10, 13, 22, 16, 35, 2
2014/11/11, 52, 18, 21, 36, 1
2014/11/12, 29, 24, 25, 29, 1
2014/11/13, 51, 17, 23, 22, 1
2014/11/14, 29, 21, 17, 40, 1
2014/11/15, 40, 17, 16, 31, 
2014/11/16, 40, 24, 23, 25, 
2014/11/17, 56, 29, 18, 40, 4
2014/11/18, 59, 37, 18, 30, 1
2014/11/19, 71, 12, 13, 29, 
2014/11/20, 36, 20, 28, 28, 
2014/11/21, 46, 21, 12, 24, 
2014/11/22, 41, 40, 7, 16, 
2014/11/23, 71, 15, 24, 17, 
2014/11/24, 38, 48, 15, 17, 1
2014/11/25, 73, 25, 21, 24, 1
2014/11/26, 34, 28, 10, 31, 
2014/11/27, 58, 8, 17, 27, 
2014/11/28, 17, 20, 8, 34, 2
2014/11/29, 50, 10, 23, 11, 1
2014/11/30, 23, 17, 16, 16, 1
2014/12/1, 46, 28, 25, 18, 2
2014/12/2, 57, 20, 17, 19, 10
2014/12/3, 32, 21, 12, 17, 1
2014/12/4, 53, 10, 16, 19, 1
2014/12/5, 28, 18, 12, 37, 3
2014/12/6, 38, 19, 17, 20, 1
2014/12/7, 38, 17, 19, 17, 1
2014/12/8, 45, 10, 25, 11, 
2014/12/9, 30, 13, 22, 18, 1
2014/12/10, 23, 22, 11, 28, 2
2014/12/11, 55, 21, 4, 33, 2
2014/12/12, 49, 26, 7, 31, 2
2014/12/13, 57, 8, 17, 33, 
2014/12/14, 16, 6, 24, 11, 
2014/12/15, 11, 17, 22, 18, 1
2014/12/16, 18, 5, 23, 12, 1
2014/12/17, 9, 9, 18, 21, 1
2014/12/18, 13, 9, 23, 19, 
2014/12/19, 15, 17, 11, 22, 1
2014/12/20, 45, 12, 4, 20, 31
2014/12/21, 45, 27, 9, 18, 
2014/12/22, 69, 15, 7, 39, 3
2014/12/23, 33, 26, 7, 23, 
2014/12/24, 69, 21, 10, 25, 1
2014/12/25, 60, 30, 16, 23, 1
2014/12/26, 78, 19, 11, 30, 2
2014/12/27, 53, 10, 20, 17, 
2014/12/28, 27, 20, 27, 9, 
2014/12/29, 40, , , , 
2014/7/2, 25, , , 6, 
2014/7/4, 34, , , , 
2014/7/8, 27, 9, , 8, 
2014/7/10, 42, 21, , 17, 1
2014/7/11, 55, 28, , 19, 1
2014/7/29, 66, 19, 26, 16, 1
2014/7/30, 55, 29, 24, 24, 
2014/7/31, 59, 26, 30, 22, 
2014/8/1, 58, 16, 30, 8, 
2014/8/2, 41, 13, 13, 12, 
2014/8/3, 18, 4, 29, 5, 
2014/8/4, 13, 10, 28, 7, 
2014/8/5, 25, 9, 24, 6, 1
2014/8/6, 21, 5, 18, 6, 
2014/8/7, 17, 6, 15, 6, 
2014/8/8, 14, 4, 13, 6, 
2014/8/9, 13, 8, 22, 7, 
2014/8/10, 19, 9, 24, 7, 
2014/8/11, 19, 11, 30, 7, 
2014/8/12, 13, 11, 19, 5, 
2014/8/13, 15, 8, 31, 6, 
2014/8/15, 24, 10, 34, 5, 
2014/8/16, 17, 16, 44, 7, 
2014/8/17, 34, 20, 38, 11, 
2014/8/18, 42, 21, 34, 9, 
2014/8/19, 50, 19, 37, 8, 
2014/8/20, 48, 19, 31, 10, 1
2014/8/21, 42, 11, 28, 10, 
2014/8/22, 27, 11, 32, 8, 1
2014/8/23, 21, 12, 38, 6, 
2014/8/24, 20, 9, 39, 5, 
2014/8/25, 26, 8, 27, 8, 
2014/8/26, 18, 7, 18, 5, 
2014/8/27, 13, 10, 16, 6, 
2014/8/28, 26, , 25, 7, 
2014/8/29, 14, , 29, 8, 1
2014/8/30, 16, 14, 39, 5, 1
2014/8/31, 42, 20, 36, 18, 1
2014/9/1, 54, 30, 32, 33, 1
2014/9/2, 74, 28, 25, 25, 
2014/9/3, 64, 19, 16, 21, 
2014/9/4, 56, 10, 21, 14, 
2014/9/5, 17, 18, 15, 21, 
2014/9/6, 33, 12, 18, 11, 
2014/9/7, 23, 4, 26, 11, 
2014/9/8, 13, 10, 16, 20, 
2014/9/9, 23, 18, 16, 22, 4
2014/9/10, 40, 14, 10, 28, 1
2014/9/11, 28, 18, 16, 18, 
2014/9/12, 34, 19, 15, 21, 1
2014/9/13, 30, 16, 22, 16, 
2014/9/14, 33, 12, 23, 10, 
2014/9/15, 21, 19, 14, 19, 1
2014/9/16, 25, 12, 24, 15, 
2014/9/17, 17, 19, 14, 19, 1
2014/9/18, 40, 20, 22, 21, 1
2014/9/19, 34, 22, 22, 28, 
2014/9/20, 44, 19, 24, 17, 
2014/9/21, 36, , 22, 15, 3
2014/9/22, 31, 20, 8, 34, 1
2014/9/23, 50, 21, 25, 22, 
2014/9/24, 58, 24, 29, 13, 
2014/9/25, 62, 30, 26, 26, 2
2014/9/26, 77, 30, 28, 27, 1
2014/9/27, 68, 23, 24, 18, 
2014/9/28, 56, 15, 31, 15, 
2014/9/29, 27, 19, 29, 11, 
2014/9/30, 56, 12, 26, 22, 
2014/10/1, 32, 20, 34, 22, 
2014/4/2, 30, 12, , 29, 1
2014/4/3, 30, 10, , 36, 
2014/4/4, 23, , , 20, 
2014/4/7, 42, 15, , 24, 
2014/4/8, 36, 9, , 16, 
2014/4/9, 25, , , 26, 1
2014/4/11, 65, 20, , 13, 
2014/4/12, 53, , , 16, 
2014/4/14, 51, 21, , 24, 
2014/4/15, 57, 38, , 25, 1
2014/4/16, 72, , , 30, 
2014/4/18, 68, , , 7, 
2014/4/21, 19, 7, , 12, 
2014/4/22, 17, 12, , 22, 1
2014/4/23, 30, 10, , 17, 
2014/4/24, 25, 20, , 23, 3
2014/4/25, 48, 17, , 21, 1
2014/4/26, 38, , , 17, 
2014/4/28, 17, 10, , 11, 
2014/5/3, 27, , , 11, 
2014/5/5, 21, 20, , 33, 2
2014/5/7, 35, 10, , 11, 
2014/5/8, 23, 13, , 10, 
2014/5/10, 22, , , , 
2014/5/13, 15, , , 14, 
2014/5/15, 55, 40, , 18, 
2014/5/16, 75, 22, , 17, 
2014/5/17, 42, , , 23, 
2014/5/19, 69, , , 23, 
2014/5/21, 31, 14, , 28, 
2014/5/22, 31, 23, , 24, 
2014/5/23, 52, 15, , 14, 
2014/5/24, 27, 17, , 7, 
2014/5/25, 36, 10, , 8, 
2014/5/26, 30, 10, , 10, 
2014/5/27, 21, 11, , 15, 
2014/5/28, 17, 9, , 12, 
2014/5/29, 26, 6, 8, 8, 1
2014/5/30, 18, 10, 17, 8, 
2014/5/31, 23, 19, 22, 8, 
2014/6/1, 34, , 14, 17, 
2014/6/3, 50, 8, 16, 9, 
2014/6/4, 18, 13, 17, 11, 
2014/6/5, 17, , 7, 28, 
2014/6/10, 34, , , , 
2014/6/12, 25, 23, , 25, 2
2014/6/13, 49, , , 16, 
2014/6/15, 59, , , 14, 
2014/6/18, 80, 30, , 26, 
2014/6/19, 59, 20, , 22, 
2014/6/20, 43, 19, , 18, 
2014/6/24, 47, 18, , 11, 
2014/6/25, 48, 27, , 9, 
2014/6/26, 55, 14, , 8, 
2014/6/27, 31, 12, , 9, 
2014/6/28, 23, 15, , 10, 
2014/6/29, 30, , , 7, 
2014/7/1, 34, 10, , 7, 
2014/2/3, 46, , 25, 16, 
2014/2/5, 24, 22, 28, 14, 2
2014/2/6, 55, 16, 22, 31, 1
2014/2/7, 38, , 22, 22, 
2014/2/10, 57, 20, 31, 7, 1
2014/2/11, 51, 14, 29, 21, 1
2014/2/12, 35, 20, 23, 24, 
2014/2/13, 53, 8, 10, 30, 1
2014/2/14, 28, 10, 11, 23, 1
2014/2/15, 24, 13, 16, 23, 
2014/2/16, 30, , 24, 16, 1
2014/2/18, 57, , 17, 34, 1
2014/2/21, 25, 16, 19, 25, 2
2014/2/22, 34, , 28, 22, 1
2014/2/25, 38, 26, 22, 33, 1
2014/2/26, 55, 36, 14, 28, 
2014/2/27, 62, 25, , 17, 5
2014/2/28, 55, 12, , 29, 1
2014/3/1, 25, , , 12, 
2014/3/4, 48, 23, , 8, 
2014/3/7, 34, 26, , 18, 1
2014/3/8, 69, , , 33, 
2014/3/11, 39, , , 28, 
2014/3/13, 74, , , 32, 1
2014/3/17, 85, 38, , 23, 2
2014/3/18, 78, , , 25, 
2014/3/21, 75, 22, , 17, 1
2014/3/22, 55, , , 30, 
2014/3/25, 39, , , 19, 
2014/3/27, 35, , , 12, 
2014/3/29, 26, , , 33, 1
2014/4/1, 38, 13, , 20, 1
2020/3/1, , 32, 27, 16, 1
2020/3/9, , 20, , 11, 
2020/2/3, , 13, 12, 20, 
2020/2/10, , 40, 15, 30, 
2020/2/17, , 8, 15, 21, 
2020/2/24, , 34, 22, 26, 
2020/2/26, , 14, 31, 8, 
2020/1/2, , 31, 5, 23, 1
2020/1/7, , 32, 7, 31, 
2020/1/13, , 36, 11, 29, 
2020/1/28, , 18, , , 
2019/10/7, , 9, 27, 13, 
2019/10/20, , 17, 35, 7, 
2019/10/21, , 17, 19, 16, 
2019/10/31, , 26, 13, 18, 
2019/11/4, , 19, 16, 22, 
2019/11/22, , 23, 24, 22, 
2019/11/25, , 22, 19, 22, 
2019/12/2, , 5, 21, 10, 1
2019/12/9, , 23, 17, 28, 1
2019/12/15, , 4, 26, 12, 
2019/12/23, , 16, 5, 20, 
2019/7/15, , 18, 27, 7, 
2019/9/17, , 24, 22, 27, 1
2019/1/1, , 19, 13, 22, 1
2019/2/4, , 22, , 28, 
2019/2/5, , 31, 12, 31, 1
2018/1/1, , 43, 22, 26, 
2018/1/7, , 13, 31, 7, 
2018/1/11, , 27, , 17, 
2018/1/19, , 14, 27, 13, 1
2017/10/8, , 37, 26, 35, 
2017/11/29, , 19, 21, 14, 
2017/9/10, , 16, 23, 5, 
2017/5/11, , 19, 30, 13, 
2017/6/14, , 60, 25, 20, 
2017/6/23, , 66, 16, 12, 
2017/2/11, , 5, 19, 10, 1
2017/2/12, , 4, 24, 18, 1
2017/2/13, , 22, 21, 28, 
2017/3/31, , 37, 26, 20, 1
2016/11/22, , 22, 6, 30, 
2016/11/23, , 15, 18, 19, 
2016/8/13, , 51, 64, 21, 1
2016/8/14, , 26, 41, 4, 1
2016/8/15, , 25, 37, 6, 1
2016/8/16, , 19, 34, 6, 
2016/8/17, , 16, 21, 5, 
2016/8/18, , 10, 24, 6, 
2016/8/19, , 27, 11, 13, 
2016/8/20, , 16, 26, 4, 
2016/8/21, , 17, 38, 9, 
2016/8/22, , 32, 35, 30, 1
2016/8/23, , 30, 38, 19, 1
2016/8/24, , 18, 26, 11, 1
2016/9/18, , 14, 33, 11, 
2016/4/11, , 17, , , 
2016/4/12, , 14, , , 
2016/5/6, , 21, , 19, 
2016/6/19, , 12, 32, 6, 
2016/3/13, , 20, , , 
2016/3/14, , 25, , 32, 
2016/3/15, , 22, , 23, 1
2015/11/7, , 28, 12, , 
2015/11/8, , 27, 20, 22, 
2015/11/29, , 16, 18, 20, 1
2015/12/26, , 26, 14, 14, 
2015/12/27, , 23, 20, 11, 1
2016/1/2, , 27, 15, 28, 
2015/7/18, , 10, 25, 7, 
2015/4/6, , 33, 16, 28, 1
2015/6/1, , 7, 26, 9, 
2015/6/2, , 13, 32, 11, 1
2015/6/4, , 22, 30, 22, 1
2015/6/8, , 42, 39, 17, 1
2015/6/21, , 35, 32, 16, 1
2015/1/1, , 44, 12, 38, 2
2015/1/28, , 13, 21, 13, 
2015/1/31, , 8, 27, 9, 
2015/2/1, , 10, 26, 15, 
2015/2/2, , 17, 12, 29, 2
2015/2/4, , 10, 23, 11, 1
2015/2/6, , 19, 21, 20, 2
2015/2/8, , 10, 16, 12, 
2015/2/9, , 16, 15, 24, 1
2015/2/10, , 20, 10, 26, 1
2015/2/14, , 23, 19, 22, 2
2015/2/25, , 21, 28, 17, 
2015/3/26, , 21, 26, 11, 1
2014/11/9, , 10, 31, 19, 1
2014/7/3, , 20, , 21, 
2014/7/7, , 13, , 6, 
2014/7/9, , 21, , 14, 
2014/7/13, , 24, , 4, 
2014/7/16, , 15, 23, 26, 1
2014/7/17, , 18, 26, 9, 
2014/7/18, , 9, 13, 15, 
2014/7/20, , 11, 22, 4, 
2014/7/21, , 10, 29, 12, 
2014/7/22, , 12, 32, 9, 
2014/7/23, , 19, 27, 8, 
2014/7/28, , 27, 40, 21, 
2014/8/14, , 17, 31, 7, 
2014/4/6, , 14, , 27, 1
2014/4/10, , 33, , 30, 1
2014/4/13, , 19, , 27, 
2014/4/17, , 29, , 15, 
2014/4/20, , 6, , 12, 
2014/4/27, , 6, , 6, 
2014/4/29, , 6, , 10, 
2014/4/30, , 6, , 12, 1
2014/5/2, , 14, , 14, 
2014/5/4, , 14, , 29, 1
2014/5/6, , 15, , 13, 
2014/5/9, , 6, , 8, 
2014/5/12, , 14, , 12, 
2014/5/14, , 32, , 18, 
2014/5/18, , 33, , 12, 
2014/5/20, , 14, , 19, 1
2014/6/2, , 19, 17, 12, 
2014/6/9, , 16, , 24, 
2014/6/11, , 14, , 14, 
2014/6/14, , 25, , 13, 
2014/6/17, , 37, , 20, 
2014/6/23, , 13, , 27, 74
2014/6/30, , 12, , 6, 
2014/2/2, , 18, , , 
2014/2/4, , 12, , , 1
2014/2/9, , 28, 27, 20, 1
2014/2/17, , 23, 31, 15, 2
2014/2/20, , 10, 18, 27, 1
2014/2/24, , 18, 35, 11, 1
2014/3/3, , 27, , 8, 
2014/3/6, , 16, , 12, 1
2014/3/10, , 16, , 16, 1
2014/3/12, , 42, , 35, 
2014/3/16, , 37, , 19, 1
2014/3/20, , 34, , 35, 1
2014/3/24, , 20, , 8, 1
2014/3/26, , 18, , 10, 
2014/3/28, , 13, , 31, 1
2014/3/31, , 17, , 18, 
2020/2/2, , , 12, 17, 
2020/2/9, , , 25, 19, 
2020/2/16, , , 9, 29, 
2020/2/23, , , 23, 29, 1
2020/1/12, , , 12, 25, 
2019/11/24, , , 23, 20, 
2019/12/1, , , 26, 9, 1
2019/12/8, , , 10, 26, 2
2018/3/24, , , 35, 5, 
2014/7/15, , , 33, 10, 
2014/7/19, , , 16, 15, 
2014/7/24, , , 26, 9, 
2014/7/25, , , 36, 10, 
2014/7/26, , , 32, 17, 
2014/7/27, , , 26, 13, 
2014/6/6, , , 7, 12, 
2014/2/1, , , 9, 26, 
2014/2/8, , , 25, 19, 1
2014/2/19, , , 26, 19, 3
2014/2/23, , , 19, 32, 
2019/12/22, , , , 16, 
2019/12/29, , , , 19, 
2016/4/6, , , , 11, 
2016/5/5, , , , 23, 
2014/7/12, , , , 9, 
2014/7/14, , , , 10, 
2014/4/5, , , , 26, 
2014/4/19, , , , 6, 
2014/5/1, , , , 5, 
2014/6/7, , , , 16, 
2014/6/8, , , , 9, 
2014/6/16, , , , 18, 
2014/6/21, , , , 10, 
2014/6/22, , , , 12, 
2014/3/2, , , , 12, 
2014/3/5, , , , 9, 1
2014/3/9, , , , 19, 
2014/3/14, , , , 31, 1
2014/3/15, , , , 18, 1
2014/3/19, , , , 12, 1
2014/3/23, , , , 8, 
2014/3/30, , , , 14, 
2015/7/17, , , , , 1